Eclipse-100000/waveform.vcd
$version Generated by VerilatedVcd $end
$timescale 1s $end
 $scope module TOP $end
  $var wire 1 H clk $end
  $var wire 1 I reset $end
  $scope module CORE $end
   $var wire 1 H clk $end
   $var wire 1 I reset $end
   $var wire 32 " PC [31:0] $end
   $var wire 32 # IR [31:0] $end
   $var wire 32 $ EA [31:0] $end
   $var wire 32 % RegX [31:0] $end
   $var wire 32 & RegY [31:0] $end
   $var wire 32 J PCNext [31:0] $end
   $var wire 6 ' opcode [5:0] $end
   $var wire 5 ( rx0 [4:0] $end
   $var wire 5 ) rx1 [4:0] $end
   $var wire 16 * immediate [15:0] $end
   $var wire 1 , XWrite $end
   $var wire 1 - YWrite $end
   $var wire 1 . IRWrite $end
   $var wire 1 9 PCWrite $end
   $var wire 1 / GPRsWrite $end
   $var wire 1 0 EAWrite $end
   $var wire 1 1 memRead $end
   $var wire 1 2 memWrite $end
   $var wire 1 3 aluSrcX $end
   $var wire 2 4 aluSrcY [1:0] $end
   $var wire 1 5 PCSrc $end
   $var wire 2 6 GPRsSrc [1:0] $end
   $var wire 32 + sign_ext_imm [31:0] $end
   $var wire 32 K GPRs_data_out0 [31:0] $end
   $var wire 32 L GPRs_data_out1 [31:0] $end
   $var wire 32 M GPRs_data_in [31:0] $end
   $var wire 32 : AluMuxX [31:0] $end
   $var wire 32 ; AluMuxY [31:0] $end
   $var wire 32 < AluResult [31:0] $end
   $var wire 2 7 aluOpSel [1:0] $end
   $var wire 6 = AluOpcode [5:0] $end
   $var wire 1 > OverflowFlag $end
   $var wire 1 ? NegativeFlag $end
   $var wire 1 @ ZeroFlag $end
   $var wire 3 A CompactedFlags [2:0] $end
   $var wire 32 B ram_data_out [31:0] $end
   $scope module all_gprs $end
    $var wire 1 H clk $end
    $var wire 1 / reg_write $end
    $var wire 5 ( rr0 [4:0] $end
    $var wire 5 ) rr1 [4:0] $end
    $var wire 5 ( rw0 [4:0] $end
    $var wire 32 M data_in [31:0] $end
    $var wire 32 K data_out0 [31:0] $end
    $var wire 32 L data_out1 [31:0] $end
    $var wire 32 N GPRs[31] [31:0] $end
    $var wire 32 O GPRs[30] [31:0] $end
    $var wire 32 P GPRs[29] [31:0] $end
    $var wire 32 Q GPRs[28] [31:0] $end
    $var wire 32 R GPRs[27] [31:0] $end
    $var wire 32 S GPRs[26] [31:0] $end
    $var wire 32 T GPRs[25] [31:0] $end
    $var wire 32 U GPRs[24] [31:0] $end
    $var wire 32 V GPRs[23] [31:0] $end
    $var wire 32 W GPRs[22] [31:0] $end
    $var wire 32 X GPRs[21] [31:0] $end
    $var wire 32 Y GPRs[20] [31:0] $end
    $var wire 32 Z GPRs[19] [31:0] $end
    $var wire 32 [ GPRs[18] [31:0] $end
    $var wire 32 \ GPRs[17] [31:0] $end
    $var wire 32 ] GPRs[16] [31:0] $end
    $var wire 32 ^ GPRs[15] [31:0] $end
    $var wire 32 _ GPRs[14] [31:0] $end
    $var wire 32 ` GPRs[13] [31:0] $end
    $var wire 32 a GPRs[12] [31:0] $end
    $var wire 32 b GPRs[11] [31:0] $end
    $var wire 32 c GPRs[10] [31:0] $end
    $var wire 32 d GPRs[9] [31:0] $end
    $var wire 32 e GPRs[8] [31:0] $end
    $var wire 32 f GPRs[7] [31:0] $end
    $var wire 32 g GPRs[6] [31:0] $end
    $var wire 32 h GPRs[5] [31:0] $end
    $var wire 32 i GPRs[4] [31:0] $end
    $var wire 32 j GPRs[3] [31:0] $end
    $var wire 32 k GPRs[2] [31:0] $end
    $var wire 32 l GPRs[1] [31:0] $end
    $var wire 32 m GPRs[0] [31:0] $end
   $upscope $end
   $scope module control_unit $end
    $var wire 1 H clk $end
    $var wire 1 I reset $end
    $var wire 6 ' opcode [5:0] $end
    $var wire 3 A flags [2:0] $end
    $var wire 1 , XWrite $end
    $var wire 1 - YWrite $end
    $var wire 1 . IRWrite $end
    $var wire 1 9 PCWrite $end
    $var wire 1 / GPRsWrite $end
    $var wire 1 0 EAWrite $end
    $var wire 1 1 memRead $end
    $var wire 1 2 memWrite $end
    $var wire 1 3 aluSrcX $end
    $var wire 2 4 aluSrcY [1:0] $end
    $var wire 1 5 PCSrc $end
    $var wire 2 6 GPRsSrc [1:0] $end
    $var wire 2 7 aluOpSel [1:0] $end
    $var wire 4 8 current_state [3:0] $end
    $var wire 4 C next_state [3:0] $end
   $upscope $end
   $scope module cpu_alu $end
    $var wire 32 : x [31:0] $end
    $var wire 32 ; y [31:0] $end
    $var wire 6 = opcode [5:0] $end
    $var wire 32 < result [31:0] $end
    $var wire 1 > OverflowFlag $end
    $var wire 1 ? NegativeFlag $end
    $var wire 1 @ ZeroFlag $end
    $var wire 64 D mul_product [63:0] $end
   $upscope $end
   $scope module system_ram $end
    $var wire 1 H clk $end
    $var wire 32 F address [31:0] $end
    $var wire 32 % data_in [31:0] $end
    $var wire 1 2 mem_write $end
    $var wire 1 1 mem_read $end
    $var wire 32 B data_out [31:0] $end
    $var wire 20 G unused_bits [19:0] $end
   $upscope $end
  $upscope $end
 $upscope $end
$enddefinitions $end


#0
b00000000000000000000000000000000 "
b00000000000000000000000000000000 #
b00000000000000000000000000000000 $
b00000000000000000000000000000000 %
b00000000000000000000000000000000 &
b000000 '
b00000 (
b00000 )
b0000000000000000 *
b00000000000000000000000000000000 +
0,
0-
1.
0/
00
11
02
13
b00 4
15
b00 6
b00 7
b0000 8
19
b00000000000000000000000000000000 :
b00000000000000000000000000000100 ;
b00000000000000000000000000000100 <
b000001 =
0>
0?
0@
b000 A
b01000100001000000001000000000000 B
b0001 C
b0000000000000000000000000000000000000000000000000000000000000000 D
b00000000000000000000000000000000 F
b00000000000000000000 G
0H
1I
b00000000000000000000000000000100 J
b00000000000000000000000000000000 K
b00000000000000000000000000000000 L
b00000000000000000000000000000100 M
b00000000000000000000000000000000 N
b00000000000000000000000000000000 O
b00000000000000000000000000000000 P
b00000000000000000000000000000000 Q
b00000000000000000000000000000000 R
b00000000000000000000000000000000 S
b00000000000000000000000000000000 T
b00000000000000000000000000000000 U
b00000000000000000000000000000000 V
b00000000000000000000000000000000 W
b00000000000000000000000000000000 X
b00000000000000000000000000000000 Y
b00000000000000000000000000000000 Z
b00000000000000000000000000000000 [
b00000000000000000000000000000000 \
b00000000000000000000000000000000 ]
b00000000000000000000000000000000 ^
b00000000000000000000000000000000 _
b00000000000000000000000000000000 `
b00000000000000000000000000000000 a
b00000000000000000000000000000000 b
b00000000000000000000000000000000 c
b00000000000000000000000000000000 d
b00000000000000000000000000000000 e
b00000000000000000000000000000000 f
b00000000000000000000000000000000 g
b00000000000000000000000000000000 h
b00000000000000000000000000000000 i
b00000000000000000000000000000000 j
b00000000000000000000000000000000 k
b00000000000000000000000000000000 l
b00000000000000000000000000000000 m
#1
1H
#2
0H
#3
1H
#4
0H
#5
b00000000000000000000000000000100 "
b01000100001000000001000000000000 #
b010001 '
b00001 (
b0001000000000000 *
b00000000000000000001000000000000 +
1,
1-
0.
10
01
b11 4
05
b0001 8
09
b00000000000000000000000000000100 :
b00000000000000000001000000000000 ;
b00000000000000000001000000000100 <
b00000000000000000000000000000000 B
b0100 C
b0000000000000000000000000000000000000000000000000100000000000000 D
1H
0I
b00000000000000000000000000000000 J
b00000000000000000001000000000100 M
#6
0H
#7
b00000000000000000001000000000100 $
0,
0-
1/
00
03
b00 4
b11 6
b0100 8
b00000000000000000000000000000000 :
b00000000000000000000000000000100 ;
b00000000000000000000000000000100 <
b0000 C
b0000000000000000000000000000000000000000000000000000000000000000 D
1H
b00000000000000000001000000000100 J
b00000000000000000001000000000000 M
#8
0H
#9
1.
0/
11
13
15
b00 6
b0000 8
19
b00000000000000000000000000000100 :
b00000000000000000000000000001000 <
b01000100010000000000000000000000 B
b0001 C
b0000000000000000000000000000000000000000000000000000000000010000 D
b00000000000000000000000000000100 F
1H
b00000000000000000000000000001000 J
b00000000000000000001000000000000 K
b00000000000000000000000000001000 M
b00000000000000000001000000000000 l
#10
0H
#11
b00000000000000000000000000001000 "
b01000100010000000000000000000000 #
b00010 (
b0000000000000000 *
b00000000000000000000000000000000 +
1,
1-
0.
10
01
b11 4
05
b0001 8
09
b00000000000000000000000000001000 :
b00000000000000000000000000000000 ;
b00000000000000000000000000000000 B
b0100 C
b0000000000000000000000000000000000000000000000000000000000000000 D
b00000000000000000000000000000000 F
1H
b00000000000000000001000000000100 J
b00000000000000000000000000000000 K
#12
0H
#13
b00000000000000000000000000001000 $
0,
0-
1/
00
03
b00 4
b11 6
b0100 8
b00000000000000000000000000000000 :
b00000000000000000000000000000100 ;
b00000000000000000000000000000100 <
b0000 C
1H
b00000000000000000000000000001000 J
b00000000000000000000000000000000 M
#14
0H
#15
1.
0/
11
13
15
b00 6
b0000 8
19
b00000000000000000000000000001000 :
b00000000000000000000000000001100 <
b01000100011000000000000000000100 B
b0001 C
b0000000000000000000000000000000000000000000000000000000000100000 D
b00000000000000000000000000001000 F
1H
b00000000000000000000000000001100 J
b00000000000000000000000000001100 M
#16
0H
#17
b00000000000000000000000000001100 "
b01000100011000000000000000000100 #
b00011 (
b0000000000000100 *
b00000000000000000000000000000100 +
1,
1-
0.
10
01
b11 4
05
b0001 8
09
b00000000000000000000000000001100 :
b00000000000000000000000000010000 <
b00000000000000000000000000000000 B
b0100 C
b0000000000000000000000000000000000000000000000000000000000110000 D
b00000000000000000000000000000000 F
1H
b00000000000000000000000000001000 J
b00000000000000000000000000010000 M
#18
0H
#19
b00000000000000000000000000010000 $
0,
0-
1/
00
03
b00 4
b11 6
b0100 8
b00000000000000000000000000000000 :
b00000000000000000000000000000100 <
b0000 C
b0000000000000000000000000000000000000000000000000000000000000000 D
1H
b00000000000000000000000000010000 J
b00000000000000000000000000000100 M
#20
0H
#21
1.
0/
11
13
15
b00 6
b0000 8
19
b00000000000000000000000000001100 :
b00000000000000000000000000010000 <
b01000100100000000000000000101000 B
b0001 C
b0000000000000000000000000000000000000000000000000000000000110000 D
b00000000000000000000000000001100 F
1H
b00000000000000000000000000000100 K
b00000000000000000000000000010000 M
b00000000000000000000000000000100 j
#22
0H
#23
b00000000000000000000000000010000 "
b01000100100000000000000000101000 #
b00100 (
b0000000000101000 *
b00000000000000000000000000101000 +
1,
1-
0.
10
01
b11 4
05
b0001 8
09
b00000000000000000000000000010000 :
b00000000000000000000000000101000 ;
b00000000000000000000000000111000 <
b00000000000000000000000000000000 B
b0100 C
b0000000000000000000000000000000000000000000000000000001010000000 D
b00000000000000000000000000000000 F
1H
b00000000000000000000000000000000 K
b00000000000000000000000000111000 M
#24
0H
#25
b00000000000000000000000000111000 $
0,
0-
1/
00
03
b00 4
b11 6
b0100 8
b00000000000000000000000000000000 :
b00000000000000000000000000000100 ;
b00000000000000000000000000000100 <
b0000 C
b0000000000000000000000000000000000000000000000000000000000000000 D
1H
b00000000000000000000000000111000 J
b00000000000000000000000000101000 M
#26
0H
#27
1.
0/
11
13
15
b00 6
b0000 8
19
b00000000000000000000000000010000 :
b00000000000000000000000000010100 <
b10011100010000010000000000000000 B
b0001 C
b0000000000000000000000000000000000000000000000000000000001000000 D
b00000000000000000000000000010000 F
1H
b00000000000000000000000000010100 J
b00000000000000000000000000101000 K
b00000000000000000000000000010100 M
b00000000000000000000000000101000 i
#28
0H
#29
b00000000000000000000000000010100 "
b10011100010000010000000000000000 #
b100111 '
b00010 (
b00001 )
b0000000000000000 *
b00000000000000000000000000000000 +
1,
1-
0.
10
01
b11 4
05
b0001 8
09
b00000000000000000000000000010100 :
b00000000000000000000000000000000 ;
b00000000000000000000000000000000 B
b0110 C
b0000000000000000000000000000000000000000000000000000000000000000 D
b00000000000000000000000000000000 F
1H
b00000000000000000000000000111000 J
b00000000000000000000000000000000 K
b00000000000000000001000000000000 L
#30
0H
#31
b00000000000000000000000000010100 $
b00000000000000000001000000000000 &
0,
0-
00
12
03
b00 4
b0110 8
b00000000000000000000000000000000 :
b00000000000000000000000000000100 ;
b00000000000000000000000000000100 <
b0000 C
b00000000000000000001000000000000 F
1H
b00000000000000000000000000010100 J
b00000000000000000000000000000100 M
#32
0H
#33
1.
11
02
13
15
b0000 8
19
b00000000000000000000000000010100 :
b00000000000000000000000000011000 <
b00000100001000110000000000000000 B
b0001 C
b0000000000000000000000000000000000000000000000000000000001010000 D
b00000000000000000000000000010100 F
1H
b00000000000000000000000000011000 J
b00000000000000000000000000011000 M
#34
0H
#35
b00000000000000000000000000011000 "
b00000100001000110000000000000000 #
b000001 '
b00001 (
b00011 )
1,
1-
0.
10
01
b11 4
05
b0001 8
09
b00000000000000000000000000011000 :
b00000000000000000000000000000000 ;
b00000000000000000000000000000000 B
b0010 C
b0000000000000000000000000000000000000000000000000000000000000000 D
b00000000000000000001000000000000 F
1H
b00000000000000000000000000010100 J
b00000000000000000001000000000000 K
b00000000000000000000000000000100 L
#36
0H
#37
b00000000000000000000000000011000 $
b00000000000000000001000000000000 %
b00000000000000000000000000000100 &
0,
0-
1/
00
03
b01 4
b10 7
b0010 8
b00000000000000000001000000000000 :
b00000000000000000000000000000100 ;
b00000000000000000001000000000100 <
b0000 C
b0000000000000000000000000000000000000000000000000100000000000000 D
b00000000000000000000000000000100 F
1H
b00000000000000000000000000011000 J
b00000000000000000001000000000100 M
#38
0H
#39
1.
0/
11
13
b00 4
15
b00 7
b0000 8
19
b00000000000000000000000000011000 :
b00000000000000000000000000011100 <
b00000100010000110000000000000000 B
b0001 C
b0000000000000000000000000000000000000000000000000000000001100000 D
b00000000000000000000000000011000 F
1H
b00000000000000000000000000011100 J
b00000000000000000001000000000100 K
b00000000000000000000000000011100 M
b00000000000000000001000000000100 l
#40
0H
#41
b00000000000000000000000000011100 "
b00000100010000110000000000000000 #
b00010 (
1,
1-
0.
10
01
b11 4
05
b0001 8
09
b00000000000000000000000000011100 :
b00000000000000000000000000000000 ;
b00000000000000000000000000000000 B
b0010 C
b0000000000000000000000000000000000000000000000000000000000000000 D
b00000000000000000000000000000100 F
1H
b00000000000000000000000000011000 J
b00000000000000000000000000000000 K
#42
0H
#43
b00000000000000000000000000011100 $
b00000000000000000000000000000000 %
0,
0-
1/
00
03
b01 4
b10 7
b0010 8
b00000000000000000000000000000000 :
b00000000000000000000000000000100 ;
b00000000000000000000000000000100 <
b0000 C
1H
b00000000000000000000000000011100 J
b00000000000000000000000000000100 M
#44
0H
#45
1.
0/
11
13
b00 4
15
b00 7
b0000 8
19
b00000000000000000000000000011100 :
b00000000000000000000000000100000 <
b11001100010001001111111111110000 B
b0001 C
b0000000000000000000000000000000000000000000000000000000001110000 D
b00000000000000000000000000011100 F
1H
b00000000000000000000000000100000 J
b00000000000000000000000000000100 K
b00000000000000000000000000100000 M
b00000000000000000000000000000100 k
#46
0H
#47
b00000000000000000000000000100000 "
b11001100010001001111111111110000 #
b110011 '
b00100 )
b1111111111110000 *
b11111111111111111111111111110000 +
1,
1-
0.
10
01
b11 4
05
b0001 8
09
b00000000000000000000000000100000 :
b11111111111111111111111111110000 ;
b00000000000000000000000000010000 <
b00000000000000000000000000000000 B
b0011 C
b0000000000000000000000000001111111111111111111111111111000000000 D
b00000000000000000000000000000100 F
1H
b00000000000000000000000000011100 J
b00000000000000000000000000101000 L
b00000000000000000000000000010000 M
#48
0H
#49
b00000000000000000000000000010000 $
b00000000000000000000000000000100 %
b00000000000000000000000000101000 &
0,
0-
00
03
b01 4
b01 7
b0011 8
19
b00000000000000000000000000000100 :
b00000000000000000000000000101000 ;
b11111111111111111111111111011100 <
b000011 =
1?
b100 A
b0000 C
b0000000000000000000000000000000000000000000000000000000010100000 D
b00000000000000000000000000101000 F
1H
b00000000000000000000000000010000 J
b11111111111111111111111111011100 M
#50
0H
#51
b00000000000000000000000000010000 "
1.
11
13
b00 4
15
b00 7
b0000 8
b00000000000000000000000000010000 :
b00000000000000000000000000000100 ;
b00000000000000000000000000010100 <
b000001 =
0?
b000 A
b10011100010000010000000000000000 B
b0001 C
b0000000000000000000000000000000000000000000000000000000001000000 D
b00000000000000000000000000010000 F
1H
b00000000000000000000000000010100 J
b00000000000000000000000000010100 M
#52
0H
#53
b00000000000000000000000000010100 "
b10011100010000010000000000000000 #
b100111 '
b00001 )
b0000000000000000 *
b00000000000000000000000000000000 +
1,
1-
0.
10
01
b11 4
05
b0001 8
09
b00000000000000000000000000010100 :
b00000000000000000000000000000000 ;
b00000000000000000000000000000000 B
b0110 C
b0000000000000000000000000000000000000000000000000000000000000000 D
b00000000000000000000000000101000 F
1H
b00000000000000000000000000010000 J
b00000000000000000001000000000100 L
#54
0H
#55
b00000000000000000000000000010100 $
b00000000000000000001000000000100 &
0,
0-
00
12
03
b00 4
b0110 8
b00000000000000000000000000000100 :
b00000000000000000000000000000100 ;
b00000000000000000000000000001000 <
b0000 C
b0000000000000000000000000000000000000000000000000000000000010000 D
b00000000000000000001000000000100 F
1H
b00000000000000000000000000010100 J
b00000000000000000000000000001000 M
#56
0H
#57
1.
11
02
13
15
b0000 8
19
b00000000000000000000000000010100 :
b00000000000000000000000000011000 <
b00000100001000110000000000000000 B
b0001 C
b0000000000000000000000000000000000000000000000000000000001010000 D
b00000000000000000000000000010100 F
1H
b00000000000000000000000000011000 J
b00000000000000000000000000011000 M
#58
0H
#59
b00000000000000000000000000011000 "
b00000100001000110000000000000000 #
b000001 '
b00001 (
b00011 )
1,
1-
0.
10
01
b11 4
05
b0001 8
09
b00000000000000000000000000011000 :
b00000000000000000000000000000000 ;
b00000000000000000000000000000000 B
b0010 C
b0000000000000000000000000000000000000000000000000000000000000000 D
b00000000000000000001000000000100 F
1H
b00000000000000000000000000010100 J
b00000000000000000001000000000100 K
b00000000000000000000000000000100 L
#60
0H
#61
b00000000000000000000000000011000 $
b00000000000000000001000000000100 %
b00000000000000000000000000000100 &
0,
0-
1/
00
03
b01 4
b10 7
b0010 8
b00000000000000000001000000000100 :
b00000000000000000000000000000100 ;
b00000000000000000001000000001000 <
b0000 C
b0000000000000000000000000000000000000000000000000100000000010000 D
b00000000000000000000000000000100 F
1H
b00000000000000000000000000011000 J
b00000000000000000001000000001000 M
#62
0H
#63
1.
0/
11
13
b00 4
15
b00 7
b0000 8
19
b00000000000000000000000000011000 :
b00000000000000000000000000011100 <
b00000100010000110000000000000000 B
b0001 C
b0000000000000000000000000000000000000000000000000000000001100000 D
b00000000000000000000000000011000 F
1H
b00000000000000000000000000011100 J
b00000000000000000001000000001000 K
b00000000000000000000000000011100 M
b00000000000000000001000000001000 l
#64
0H
#65
b00000000000000000000000000011100 "
b00000100010000110000000000000000 #
b00010 (
1,
1-
0.
10
01
b11 4
05
b0001 8
09
b00000000000000000000000000011100 :
b00000000000000000000000000000000 ;
b00000000000000000000000000000000 B
b0010 C
b0000000000000000000000000000000000000000000000000000000000000000 D
b00000000000000000000000000000100 F
1H
b00000000000000000000000000011000 J
b00000000000000000000000000000100 K
#66
0H
#67
b00000000000000000000000000011100 $
b00000000000000000000000000000100 %
0,
0-
1/
00
03
b01 4
b10 7
b0010 8
b00000000000000000000000000000100 :
b00000000000000000000000000000100 ;
b00000000000000000000000000001000 <
b0000 C
b0000000000000000000000000000000000000000000000000000000000010000 D
1H
b00000000000000000000000000011100 J
b00000000000000000000000000001000 M
#68
0H
#69
1.
0/
11
13
b00 4
15
b00 7
b0000 8
19
b00000000000000000000000000011100 :
b00000000000000000000000000100000 <
b11001100010001001111111111110000 B
b0001 C
b0000000000000000000000000000000000000000000000000000000001110000 D
b00000000000000000000000000011100 F
1H
b00000000000000000000000000100000 J
b00000000000000000000000000001000 K
b00000000000000000000000000100000 M
b00000000000000000000000000001000 k
#70
0H
#71
b00000000000000000000000000100000 "
b11001100010001001111111111110000 #
b110011 '
b00100 )
b1111111111110000 *
b11111111111111111111111111110000 +
1,
1-
0.
10
01
b11 4
05
b0001 8
09
b00000000000000000000000000100000 :
b11111111111111111111111111110000 ;
b00000000000000000000000000010000 <
b00000000000000000000000000000000 B
b0011 C
b0000000000000000000000000001111111111111111111111111111000000000 D
b00000000000000000000000000000100 F
1H
b00000000000000000000000000011100 J
b00000000000000000000000000101000 L
b00000000000000000000000000010000 M
#72
0H
#73
b00000000000000000000000000010000 $
b00000000000000000000000000001000 %
b00000000000000000000000000101000 &
0,
0-
00
03
b01 4
b01 7
b0011 8
19
b00000000000000000000000000001000 :
b00000000000000000000000000101000 ;
b11111111111111111111111111100000 <
b000011 =
1?
b100 A
b0000 C
b0000000000000000000000000000000000000000000000000000000101000000 D
b00000000000000000000000000101000 F
1H
b00000000000000000000000000010000 J
b11111111111111111111111111100000 M
#74
0H
#75
b00000000000000000000000000010000 "
1.
11
13
b00 4
15
b00 7
b0000 8
b00000000000000000000000000010000 :
b00000000000000000000000000000100 ;
b00000000000000000000000000010100 <
b000001 =
0?
b000 A
b10011100010000010000000000000000 B
b0001 C
b0000000000000000000000000000000000000000000000000000000001000000 D
b00000000000000000000000000010000 F
1H
b00000000000000000000000000010100 J
b00000000000000000000000000010100 M
#76
0H
#77
b00000000000000000000000000010100 "
b10011100010000010000000000000000 #
b100111 '
b00001 )
b0000000000000000 *
b00000000000000000000000000000000 +
1,
1-
0.
10
01
b11 4
05
b0001 8
09
b00000000000000000000000000010100 :
b00000000000000000000000000000000 ;
b00000000000000000000000000000000 B
b0110 C
b0000000000000000000000000000000000000000000000000000000000000000 D
b00000000000000000000000000101000 F
1H
b00000000000000000000000000010000 J
b00000000000000000001000000001000 L
#78
0H
#79
b00000000000000000000000000010100 $
b00000000000000000001000000001000 &
0,
0-
00
12
03
b00 4
b0110 8
b00000000000000000000000000001000 :
b00000000000000000000000000000100 ;
b00000000000000000000000000001100 <
b0000 C
b0000000000000000000000000000000000000000000000000000000000100000 D
b00000000000000000001000000001000 F
1H
b00000000000000000000000000010100 J
b00000000000000000000000000001100 M
#80
0H
#81
1.
11
02
13
15
b0000 8
19
b00000000000000000000000000010100 :
b00000000000000000000000000011000 <
b00000100001000110000000000000000 B
b0001 C
b0000000000000000000000000000000000000000000000000000000001010000 D
b00000000000000000000000000010100 F
1H
b00000000000000000000000000011000 J
b00000000000000000000000000011000 M
#82
0H
#83
b00000000000000000000000000011000 "
b00000100001000110000000000000000 #
b000001 '
b00001 (
b00011 )
1,
1-
0.
10
01
b11 4
05
b0001 8
09
b00000000000000000000000000011000 :
b00000000000000000000000000000000 ;
b00000000000000000000000000000000 B
b0010 C
b0000000000000000000000000000000000000000000000000000000000000000 D
b00000000000000000001000000001000 F
1H
b00000000000000000000000000010100 J
b00000000000000000001000000001000 K
b00000000000000000000000000000100 L
#84
0H
#85
b00000000000000000000000000011000 $
b00000000000000000001000000001000 %
b00000000000000000000000000000100 &
0,
0-
1/
00
03
b01 4
b10 7
b0010 8
b00000000000000000001000000001000 :
b00000000000000000000000000000100 ;
b00000000000000000001000000001100 <
b0000 C
b0000000000000000000000000000000000000000000000000100000000100000 D
b00000000000000000000000000000100 F
1H
b00000000000000000000000000011000 J
b00000000000000000001000000001100 M
#86
0H
#87
1.
0/
11
13
b00 4
15
b00 7
b0000 8
19
b00000000000000000000000000011000 :
b00000000000000000000000000011100 <
b00000100010000110000000000000000 B
b0001 C
b0000000000000000000000000000000000000000000000000000000001100000 D
b00000000000000000000000000011000 F
1H
b00000000000000000000000000011100 J
b00000000000000000001000000001100 K
b00000000000000000000000000011100 M
b00000000000000000001000000001100 l
#88
0H
#89
b00000000000000000000000000011100 "
b00000100010000110000000000000000 #
b00010 (
1,
1-
0.
10
01
b11 4
05
b0001 8
09
b00000000000000000000000000011100 :
b00000000000000000000000000000000 ;
b00000000000000000000000000000000 B
b0010 C
b0000000000000000000000000000000000000000000000000000000000000000 D
b00000000000000000000000000000100 F
1H
b00000000000000000000000000011000 J
b00000000000000000000000000001000 K
#90
0H
#91
b00000000000000000000000000011100 $
b00000000000000000000000000001000 %
0,
0-
1/
00
03
b01 4
b10 7
b0010 8
b00000000000000000000000000001000 :
b00000000000000000000000000000100 ;
b00000000000000000000000000001100 <
b0000 C
b0000000000000000000000000000000000000000000000000000000000100000 D
1H
b00000000000000000000000000011100 J
b00000000000000000000000000001100 M
#92
0H
#93
1.
0/
11
13
b00 4
15
b00 7
b0000 8
19
b00000000000000000000000000011100 :
b00000000000000000000000000100000 <
b11001100010001001111111111110000 B
b0001 C
b0000000000000000000000000000000000000000000000000000000001110000 D
b00000000000000000000000000011100 F
1H
b00000000000000000000000000100000 J
b00000000000000000000000000001100 K
b00000000000000000000000000100000 M
b00000000000000000000000000001100 k
#94
0H
#95
b00000000000000000000000000100000 "
b11001100010001001111111111110000 #
b110011 '
b00100 )
b1111111111110000 *
b11111111111111111111111111110000 +
1,
1-
0.
10
01
b11 4
05
b0001 8
09
b00000000000000000000000000100000 :
b11111111111111111111111111110000 ;
b00000000000000000000000000010000 <
b00000000000000000000000000000000 B
b0011 C
b0000000000000000000000000001111111111111111111111111111000000000 D
b00000000000000000000000000000100 F
1H
b00000000000000000000000000011100 J
b00000000000000000000000000101000 L
b00000000000000000000000000010000 M
#96
0H
#97
b00000000000000000000000000010000 $
b00000000000000000000000000001100 %
b00000000000000000000000000101000 &
0,
0-
00
03
b01 4
b01 7
b0011 8
19
b00000000000000000000000000001100 :
b00000000000000000000000000101000 ;
b11111111111111111111111111100100 <
b000011 =
1?
b100 A
b0000 C
b0000000000000000000000000000000000000000000000000000000111100000 D
b00000000000000000000000000101000 F
1H
b00000000000000000000000000010000 J
b11111111111111111111111111100100 M
#98
0H
#99
b00000000000000000000000000010000 "
1.
11
13
b00 4
15
b00 7
b0000 8
b00000000000000000000000000010000 :
b00000000000000000000000000000100 ;
b00000000000000000000000000010100 <
b000001 =
0?
b000 A
b10011100010000010000000000000000 B
b0001 C
b0000000000000000000000000000000000000000000000000000000001000000 D
b00000000000000000000000000010000 F
1H
b00000000000000000000000000010100 J
b00000000000000000000000000010100 M
#100
0H
#101
b00000000000000000000000000010100 "
b10011100010000010000000000000000 #
b100111 '
b00001 )
b0000000000000000 *
b00000000000000000000000000000000 +
1,
1-
0.
10
01
b11 4
05
b0001 8
09
b00000000000000000000000000010100 :
b00000000000000000000000000000000 ;
b00000000000000000000000000000000 B
b0110 C
b0000000000000000000000000000000000000000000000000000000000000000 D
b00000000000000000000000000101000 F
1H
b00000000000000000000000000010000 J
b00000000000000000001000000001100 L
#102
0H
#103
b00000000000000000000000000010100 $
b00000000000000000001000000001100 &
0,
0-
00
12
03
b00 4
b0110 8
b00000000000000000000000000001100 :
b00000000000000000000000000000100 ;
b00000000000000000000000000010000 <
b0000 C
b0000000000000000000000000000000000000000000000000000000000110000 D
b00000000000000000001000000001100 F
1H
b00000000000000000000000000010100 J
b00000000000000000000000000010000 M
#104
0H
#105
1.
11
02
13
15
b0000 8
19
b00000000000000000000000000010100 :
b00000000000000000000000000011000 <
b00000100001000110000000000000000 B
b0001 C
b0000000000000000000000000000000000000000000000000000000001010000 D
b00000000000000000000000000010100 F
1H
b00000000000000000000000000011000 J
b00000000000000000000000000011000 M
#106
0H
#107
b00000000000000000000000000011000 "
b00000100001000110000000000000000 #
b000001 '
b00001 (
b00011 )
1,
1-
0.
10
01
b11 4
05
b0001 8
09
b00000000000000000000000000011000 :
b00000000000000000000000000000000 ;
b00000000000000000000000000000000 B
b0010 C
b0000000000000000000000000000000000000000000000000000000000000000 D
b00000000000000000001000000001100 F
1H
b00000000000000000000000000010100 J
b00000000000000000001000000001100 K
b00000000000000000000000000000100 L
#108
0H
#109
b00000000000000000000000000011000 $
b00000000000000000001000000001100 %
b00000000000000000000000000000100 &
0,
0-
1/
00
03
b01 4
b10 7
b0010 8
b00000000000000000001000000001100 :
b00000000000000000000000000000100 ;
b00000000000000000001000000010000 <
b0000 C
b0000000000000000000000000000000000000000000000000100000000110000 D
b00000000000000000000000000000100 F
1H
b00000000000000000000000000011000 J
b00000000000000000001000000010000 M
#110
0H
#111
1.
0/
11
13
b00 4
15
b00 7
b0000 8
19
b00000000000000000000000000011000 :
b00000000000000000000000000011100 <
b00000100010000110000000000000000 B
b0001 C
b0000000000000000000000000000000000000000000000000000000001100000 D
b00000000000000000000000000011000 F
1H
b00000000000000000000000000011100 J
b00000000000000000001000000010000 K
b00000000000000000000000000011100 M
b00000000000000000001000000010000 l
#112
0H
#113
b00000000000000000000000000011100 "
b00000100010000110000000000000000 #
b00010 (
1,
1-
0.
10
01
b11 4
05
b0001 8
09
b00000000000000000000000000011100 :
b00000000000000000000000000000000 ;
b00000000000000000000000000000000 B
b0010 C
b0000000000000000000000000000000000000000000000000000000000000000 D
b00000000000000000000000000000100 F
1H
b00000000000000000000000000011000 J
b00000000000000000000000000001100 K
#114
0H
#115
b00000000000000000000000000011100 $
b00000000000000000000000000001100 %
0,
0-
1/
00
03
b01 4
b10 7
b0010 8
b00000000000000000000000000001100 :
b00000000000000000000000000000100 ;
b00000000000000000000000000010000 <
b0000 C
b0000000000000000000000000000000000000000000000000000000000110000 D
1H
b00000000000000000000000000011100 J
b00000000000000000000000000010000 M
#116
0H
#117
1.
0/
11
13
b00 4
15
b00 7
b0000 8
19
b00000000000000000000000000011100 :
b00000000000000000000000000100000 <
b11001100010001001111111111110000 B
b0001 C
b0000000000000000000000000000000000000000000000000000000001110000 D
b00000000000000000000000000011100 F
1H
b00000000000000000000000000100000 J
b00000000000000000000000000010000 K
b00000000000000000000000000100000 M
b00000000000000000000000000010000 k
#118
0H
