Eclipse-100000/waveform.vcd
$version Generated by VerilatedVcd $end
$timescale 1s $end
 $scope module TOP $end
  $var wire 1 G clk $end
  $var wire 1 H reset $end
  $scope module CORE $end
   $var wire 1 G clk $end
   $var wire 1 H reset $end
   $var wire 32 " PC [31:0] $end
   $var wire 32 # IR [31:0] $end
   $var wire 32 $ EA [31:0] $end
   $var wire 32 % RegX [31:0] $end
   $var wire 32 & RegY [31:0] $end
   $var wire 32 I PCNext [31:0] $end
   $var wire 6 ' opcode [5:0] $end
   $var wire 5 ( rx0 [4:0] $end
   $var wire 5 ) rx1 [4:0] $end
   $var wire 16 * immediate [15:0] $end
   $var wire 1 + XWrite $end
   $var wire 1 , YWrite $end
   $var wire 1 - IRWrite $end
   $var wire 1 8 PCWrite $end
   $var wire 1 . GPRsWrite $end
   $var wire 1 / EAWrite $end
   $var wire 1 0 memRead $end
   $var wire 1 1 memWrite $end
   $var wire 1 2 aluSrcX $end
   $var wire 2 3 aluSrcY [1:0] $end
   $var wire 1 4 PCSrc $end
   $var wire 2 5 GPRsSrc [1:0] $end
   $var wire 32 J GPRs_data_out0 [31:0] $end
   $var wire 32 K GPRs_data_out1 [31:0] $end
   $var wire 32 L GPRs_data_in [31:0] $end
   $var wire 32 9 AluMuxX [31:0] $end
   $var wire 32 : AluMuxY [31:0] $end
   $var wire 32 ; AluResult [31:0] $end
   $var wire 2 6 aluOpSel [1:0] $end
   $var wire 6 < AluOpcode [5:0] $end
   $var wire 1 = OverflowFlag $end
   $var wire 1 > NegativeFlag $end
   $var wire 1 ? ZeroFlag $end
   $var wire 3 @ CompactedFlags [2:0] $end
   $var wire 32 A ram_data_out [31:0] $end
   $scope module all_gprs $end
    $var wire 1 G clk $end
    $var wire 1 . reg_write $end
    $var wire 5 ( rr0 [4:0] $end
    $var wire 5 ) rr1 [4:0] $end
    $var wire 5 ( rw0 [4:0] $end
    $var wire 32 L data_in [31:0] $end
    $var wire 32 J data_out0 [31:0] $end
    $var wire 32 K data_out1 [31:0] $end
    $var wire 32 M GPRs[31] [31:0] $end
    $var wire 32 N GPRs[30] [31:0] $end
    $var wire 32 O GPRs[29] [31:0] $end
    $var wire 32 P GPRs[28] [31:0] $end
    $var wire 32 Q GPRs[27] [31:0] $end
    $var wire 32 R GPRs[26] [31:0] $end
    $var wire 32 S GPRs[25] [31:0] $end
    $var wire 32 T GPRs[24] [31:0] $end
    $var wire 32 U GPRs[23] [31:0] $end
    $var wire 32 V GPRs[22] [31:0] $end
    $var wire 32 W GPRs[21] [31:0] $end
    $var wire 32 X GPRs[20] [31:0] $end
    $var wire 32 Y GPRs[19] [31:0] $end
    $var wire 32 Z GPRs[18] [31:0] $end
    $var wire 32 [ GPRs[17] [31:0] $end
    $var wire 32 \ GPRs[16] [31:0] $end
    $var wire 32 ] GPRs[15] [31:0] $end
    $var wire 32 ^ GPRs[14] [31:0] $end
    $var wire 32 _ GPRs[13] [31:0] $end
    $var wire 32 ` GPRs[12] [31:0] $end
    $var wire 32 a GPRs[11] [31:0] $end
    $var wire 32 b GPRs[10] [31:0] $end
    $var wire 32 c GPRs[9] [31:0] $end
    $var wire 32 d GPRs[8] [31:0] $end
    $var wire 32 e GPRs[7] [31:0] $end
    $var wire 32 f GPRs[6] [31:0] $end
    $var wire 32 g GPRs[5] [31:0] $end
    $var wire 32 h GPRs[4] [31:0] $end
    $var wire 32 i GPRs[3] [31:0] $end
    $var wire 32 j GPRs[2] [31:0] $end
    $var wire 32 k GPRs[1] [31:0] $end
    $var wire 32 l GPRs[0] [31:0] $end
   $upscope $end
   $scope module control_unit $end
    $var wire 1 G clk $end
    $var wire 1 H reset $end
    $var wire 6 ' opcode [5:0] $end
    $var wire 3 @ flags [2:0] $end
    $var wire 1 + XWrite $end
    $var wire 1 , YWrite $end
    $var wire 1 - IRWrite $end
    $var wire 1 8 PCWrite $end
    $var wire 1 . GPRsWrite $end
    $var wire 1 / EAWrite $end
    $var wire 1 0 memRead $end
    $var wire 1 1 memWrite $end
    $var wire 1 2 aluSrcX $end
    $var wire 2 3 aluSrcY [1:0] $end
    $var wire 1 4 PCSrc $end
    $var wire 2 5 GPRsSrc [1:0] $end
    $var wire 2 6 aluOpSel [1:0] $end
    $var wire 4 7 current_state [3:0] $end
    $var wire 4 B next_state [3:0] $end
   $upscope $end
   $scope module cpu_alu $end
    $var wire 32 9 x [31:0] $end
    $var wire 32 : y [31:0] $end
    $var wire 6 < opcode [5:0] $end
    $var wire 32 ; result [31:0] $end
    $var wire 1 = OverflowFlag $end
    $var wire 1 > NegativeFlag $end
    $var wire 1 ? ZeroFlag $end
    $var wire 64 C mul_product [63:0] $end
   $upscope $end
   $scope module system_ram $end
    $var wire 1 G clk $end
    $var wire 32 E address [31:0] $end
    $var wire 32 K data_in [31:0] $end
    $var wire 1 1 mem_write $end
    $var wire 1 0 mem_read $end
    $var wire 32 A data_out [31:0] $end
    $var wire 20 F unused_bits [19:0] $end
   $upscope $end
  $upscope $end
 $upscope $end
$enddefinitions $end


#0
b00000000000000000000000000000000 "
b00000000000000000000000000000000 #
b00000000000000000000000000000000 $
b00000000000000000000000000000000 %
b00000000000000000000000000000000 &
b000000 '
b00000 (
b00000 )
b0000000000000000 *
0+
0,
1-
0.
0/
00
01
12
b00 3
14
b00 5
b00 6
b0000 7
18
b00000000000000000000000000000000 9
b00000000000000000000000000000100 :
b00000000000000000000000000000100 ;
b000001 <
0=
0>
0?
b000 @
b00000000000000000000000000000000 A
b0001 B
b0000000000000000000000000000000000000000000000000000000000000000 C
b00000000000000000000000000000000 E
b00000000000000000000 F
0G
1H
b00000000000000000000000000000100 I
b00000000000000000000000000000000 J
b00000000000000000000000000000000 K
b00000000000000000000000000000100 L
b00000000000000000000000000000000 M
b00000000000000000000000000000000 N
b00000000000000000000000000000000 O
b00000000000000000000000000000000 P
b00000000000000000000000000000000 Q
b00000000000000000000000000000000 R
b00000000000000000000000000000000 S
b00000000000000000000000000000000 T
b00000000000000000000000000000000 U
b00000000000000000000000000000000 V
b00000000000000000000000000000000 W
b00000000000000000000000000000000 X
b00000000000000000000000000000000 Y
b00000000000000000000000000000000 Z
b00000000000000000000000000000000 [
b00000000000000000000000000000000 \
b00000000000000000000000000000000 ]
b00000000000000000000000000000000 ^
b00000000000000000000000000000000 _
b00000000000000000000000000000000 `
b00000000000000000000000000000000 a
b00000000000000000000000000000000 b
b00000000000000000000000000000000 c
b00000000000000000000000000000000 d
b00000000000000000000000000000000 e
b00000000000000000000000000000000 f
b00000000000000000000000000000000 g
b00000000000000000000000000000000 h
b00000000000000000000000000000000 i
b00000000000000000000000000000000 j
b00000000000000000000000000000000 k
b00000000000000000000000000000000 l
#1
1+
1,
0-
1/
b11 3
04
b0001 7
08
b00000000000000000000000000000000 :
b00000000000000000000000000000000 ;
1?
b001 @
b0010 B
1G
b00000000000000000000000000000000 I
b00000000000000000000000000000000 L
#2
0G
#3
0+
0,
0/
02
b01 3
b10 6
b0010 7
b000000 <
b0111 B
1G
#4
0G
#5
1-
12
b00 3
14
b00 6
b0000 7
18
b00000000000000000000000000000100 :
b00000000000000000000000000000100 ;
b000001 <
0?
b000 @
b0001 B
1G
0H
b00000000000000000000000000000100 I
b00000000000000000000000000000100 L
#6
0G
#7
b00000000000000000000000000000100 "
b00000000000000000000000000000100 9
b00000000000000000000000000001000 ;
b0000000000000000000000000000000000000000000000000000000000010000 C
1G
b00000000000000000000000000001000 I
b00000000000000000000000000001000 L
#8
0G
#9
b00000000000000000000000000001000 "
b00000000000000000000000000001000 9
b00000000000000000000000000001100 ;
b0000000000000000000000000000000000000000000000000000000000100000 C
1G
b00000000000000000000000000001100 I
b00000000000000000000000000001100 L
#10
0G
#11
b00000000000000000000000000001100 "
b00000000000000000000000000001100 9
b00000000000000000000000000010000 ;
b0000000000000000000000000000000000000000000000000000000000110000 C
1G
b00000000000000000000000000010000 I
b00000000000000000000000000010000 L
#12
0G
#13
b00000000000000000000000000010000 "
b00000000000000000000000000010000 9
b00000000000000000000000000010100 ;
b0000000000000000000000000000000000000000000000000000000001000000 C
1G
b00000000000000000000000000010100 I
b00000000000000000000000000010100 L
#14
0G
#15
b00000000000000000000000000010100 "
b00000000000000000000000000010100 9
b00000000000000000000000000011000 ;
b0000000000000000000000000000000000000000000000000000000001010000 C
1G
b00000000000000000000000000011000 I
b00000000000000000000000000011000 L
#16
0G
#17
b00000000000000000000000000011000 "
b00000000000000000000000000011000 9
b00000000000000000000000000011100 ;
b0000000000000000000000000000000000000000000000000000000001100000 C
1G
b00000000000000000000000000011100 I
b00000000000000000000000000011100 L
#18
0G
#19
b00000000000000000000000000011100 "
b00000000000000000000000000011100 9
b00000000000000000000000000100000 ;
b0000000000000000000000000000000000000000000000000000000001110000 C
1G
b00000000000000000000000000100000 I
b00000000000000000000000000100000 L
#20
0G
#21
b00000000000000000000000000100000 "
b00000000000000000000000000100000 9
b00000000000000000000000000100100 ;
b0000000000000000000000000000000000000000000000000000000010000000 C
1G
b00000000000000000000000000100100 I
b00000000000000000000000000100100 L
#22
0G
#23
b00000000000000000000000000100100 "
b00000000000000000000000000100100 9
b00000000000000000000000000101000 ;
b0000000000000000000000000000000000000000000000000000000010010000 C
1G
b00000000000000000000000000101000 I
b00000000000000000000000000101000 L
#24
0G
#25
b00000000000000000000000000101000 "
b00000000000000000000000000101000 9
b00000000000000000000000000101100 ;
b0000000000000000000000000000000000000000000000000000000010100000 C
1G
b00000000000000000000000000101100 I
b00000000000000000000000000101100 L
#26
0G
#27
b00000000000000000000000000101100 "
b00000000000000000000000000101100 9
b00000000000000000000000000110000 ;
b0000000000000000000000000000000000000000000000000000000010110000 C
1G
b00000000000000000000000000110000 I
b00000000000000000000000000110000 L
#28
0G
#29
b00000000000000000000000000110000 "
b00000000000000000000000000110000 9
b00000000000000000000000000110100 ;
b0000000000000000000000000000000000000000000000000000000011000000 C
1G
b00000000000000000000000000110100 I
b00000000000000000000000000110100 L
#30
0G
#31
b00000000000000000000000000110100 "
b00000000000000000000000000110100 9
b00000000000000000000000000111000 ;
b0000000000000000000000000000000000000000000000000000000011010000 C
1G
b00000000000000000000000000111000 I
b00000000000000000000000000111000 L
#32
0G
#33
b00000000000000000000000000111000 "
b00000000000000000000000000111000 9
b00000000000000000000000000111100 ;
b0000000000000000000000000000000000000000000000000000000011100000 C
1G
b00000000000000000000000000111100 I
b00000000000000000000000000111100 L
#34
0G
#35
b00000000000000000000000000111100 "
b00000000000000000000000000111100 9
b00000000000000000000000001000000 ;
b0000000000000000000000000000000000000000000000000000000011110000 C
1G
b00000000000000000000000001000000 I
b00000000000000000000000001000000 L
#36
0G
#37
b00000000000000000000000001000000 "
b00000000000000000000000001000000 9
b00000000000000000000000001000100 ;
b0000000000000000000000000000000000000000000000000000000100000000 C
1G
b00000000000000000000000001000100 I
b00000000000000000000000001000100 L
#38
0G
#39
b00000000000000000000000001000100 "
b00000000000000000000000001000100 9
b00000000000000000000000001001000 ;
b0000000000000000000000000000000000000000000000000000000100010000 C
1G
b00000000000000000000000001001000 I
b00000000000000000000000001001000 L
#40
0G
#41
b00000000000000000000000001001000 "
b00000000000000000000000001001000 9
b00000000000000000000000001001100 ;
b0000000000000000000000000000000000000000000000000000000100100000 C
1G
b00000000000000000000000001001100 I
b00000000000000000000000001001100 L
#42
0G
#43
b00000000000000000000000001001100 "
b00000000000000000000000001001100 9
b00000000000000000000000001010000 ;
b0000000000000000000000000000000000000000000000000000000100110000 C
1G
b00000000000000000000000001010000 I
b00000000000000000000000001010000 L
#44
0G
#45
b00000000000000000000000001010000 "
b00000000000000000000000001010000 9
b00000000000000000000000001010100 ;
b0000000000000000000000000000000000000000000000000000000101000000 C
1G
b00000000000000000000000001010100 I
b00000000000000000000000001010100 L
#46
0G
#47
b00000000000000000000000001010100 "
b00000000000000000000000001010100 9
b00000000000000000000000001011000 ;
b0000000000000000000000000000000000000000000000000000000101010000 C
1G
b00000000000000000000000001011000 I
b00000000000000000000000001011000 L
#48
0G
#49
b00000000000000000000000001011000 "
b00000000000000000000000001011000 9
b00000000000000000000000001011100 ;
b0000000000000000000000000000000000000000000000000000000101100000 C
1G
b00000000000000000000000001011100 I
b00000000000000000000000001011100 L
#50
0G
#51
b00000000000000000000000001011100 "
b00000000000000000000000001011100 9
b00000000000000000000000001100000 ;
b0000000000000000000000000000000000000000000000000000000101110000 C
1G
b00000000000000000000000001100000 I
b00000000000000000000000001100000 L
#52
0G
#53
b00000000000000000000000001100000 "
b00000000000000000000000001100000 9
b00000000000000000000000001100100 ;
b0000000000000000000000000000000000000000000000000000000110000000 C
1G
b00000000000000000000000001100100 I
b00000000000000000000000001100100 L
#54
0G
#55
b00000000000000000000000001100100 "
b00000000000000000000000001100100 9
b00000000000000000000000001101000 ;
b0000000000000000000000000000000000000000000000000000000110010000 C
1G
b00000000000000000000000001101000 I
b00000000000000000000000001101000 L
#56
0G
#57
b00000000000000000000000001101000 "
b00000000000000000000000001101000 9
b00000000000000000000000001101100 ;
b0000000000000000000000000000000000000000000000000000000110100000 C
1G
b00000000000000000000000001101100 I
b00000000000000000000000001101100 L
#58
0G
#59
b00000000000000000000000001101100 "
b00000000000000000000000001101100 9
b00000000000000000000000001110000 ;
b0000000000000000000000000000000000000000000000000000000110110000 C
1G
b00000000000000000000000001110000 I
b00000000000000000000000001110000 L
#60
0G
#61
b00000000000000000000000001110000 "
b00000000000000000000000001110000 9
b00000000000000000000000001110100 ;
b0000000000000000000000000000000000000000000000000000000111000000 C
1G
b00000000000000000000000001110100 I
b00000000000000000000000001110100 L
#62
0G
#63
b00000000000000000000000001110100 "
b00000000000000000000000001110100 9
b00000000000000000000000001111000 ;
b0000000000000000000000000000000000000000000000000000000111010000 C
1G
b00000000000000000000000001111000 I
b00000000000000000000000001111000 L
#64
0G
#65
b00000000000000000000000001111000 "
b00000000000000000000000001111000 9
b00000000000000000000000001111100 ;
b0000000000000000000000000000000000000000000000000000000111100000 C
1G
b00000000000000000000000001111100 I
b00000000000000000000000001111100 L
#66
0G
#67
b00000000000000000000000001111100 "
b00000000000000000000000001111100 9
b00000000000000000000000010000000 ;
b0000000000000000000000000000000000000000000000000000000111110000 C
1G
b00000000000000000000000010000000 I
b00000000000000000000000010000000 L
#68
0G
#69
b00000000000000000000000010000000 "
b00000000000000000000000010000000 9
b00000000000000000000000010000100 ;
b0000000000000000000000000000000000000000000000000000001000000000 C
1G
b00000000000000000000000010000100 I
b00000000000000000000000010000100 L
#70
0G
#71
b00000000000000000000000010000100 "
b00000000000000000000000010000100 9
b00000000000000000000000010001000 ;
b0000000000000000000000000000000000000000000000000000001000010000 C
1G
b00000000000000000000000010001000 I
b00000000000000000000000010001000 L
#72
0G
#73
b00000000000000000000000010001000 "
b00000000000000000000000010001000 9
b00000000000000000000000010001100 ;
b0000000000000000000000000000000000000000000000000000001000100000 C
1G
b00000000000000000000000010001100 I
b00000000000000000000000010001100 L
#74
0G
#75
b00000000000000000000000010001100 "
b00000000000000000000000010001100 9
b00000000000000000000000010010000 ;
b0000000000000000000000000000000000000000000000000000001000110000 C
1G
b00000000000000000000000010010000 I
b00000000000000000000000010010000 L
#76
0G
#77
b00000000000000000000000010010000 "
b00000000000000000000000010010000 9
b00000000000000000000000010010100 ;
b0000000000000000000000000000000000000000000000000000001001000000 C
1G
b00000000000000000000000010010100 I
b00000000000000000000000010010100 L
#78
0G
#79
b00000000000000000000000010010100 "
b00000000000000000000000010010100 9
b00000000000000000000000010011000 ;
b0000000000000000000000000000000000000000000000000000001001010000 C
1G
b00000000000000000000000010011000 I
b00000000000000000000000010011000 L
#80
0G
#81
b00000000000000000000000010011000 "
b00000000000000000000000010011000 9
b00000000000000000000000010011100 ;
b0000000000000000000000000000000000000000000000000000001001100000 C
1G
b00000000000000000000000010011100 I
b00000000000000000000000010011100 L
#82
0G
#83
b00000000000000000000000010011100 "
b00000000000000000000000010011100 9
b00000000000000000000000010100000 ;
b0000000000000000000000000000000000000000000000000000001001110000 C
1G
b00000000000000000000000010100000 I
b00000000000000000000000010100000 L
#84
0G
#85
b00000000000000000000000010100000 "
b00000000000000000000000010100000 9
b00000000000000000000000010100100 ;
b0000000000000000000000000000000000000000000000000000001010000000 C
1G
b00000000000000000000000010100100 I
b00000000000000000000000010100100 L
#86
0G
#87
b00000000000000000000000010100100 "
b00000000000000000000000010100100 9
b00000000000000000000000010101000 ;
b0000000000000000000000000000000000000000000000000000001010010000 C
1G
b00000000000000000000000010101000 I
b00000000000000000000000010101000 L
#88
0G
#89
b00000000000000000000000010101000 "
b00000000000000000000000010101000 9
b00000000000000000000000010101100 ;
b0000000000000000000000000000000000000000000000000000001010100000 C
1G
b00000000000000000000000010101100 I
b00000000000000000000000010101100 L
#90
0G
#91
b00000000000000000000000010101100 "
b00000000000000000000000010101100 9
b00000000000000000000000010110000 ;
b0000000000000000000000000000000000000000000000000000001010110000 C
1G
b00000000000000000000000010110000 I
b00000000000000000000000010110000 L
#92
0G
#93
b00000000000000000000000010110000 "
b00000000000000000000000010110000 9
b00000000000000000000000010110100 ;
b0000000000000000000000000000000000000000000000000000001011000000 C
1G
b00000000000000000000000010110100 I
b00000000000000000000000010110100 L
#94
0G
#95
b00000000000000000000000010110100 "
b00000000000000000000000010110100 9
b00000000000000000000000010111000 ;
b0000000000000000000000000000000000000000000000000000001011010000 C
1G
b00000000000000000000000010111000 I
b00000000000000000000000010111000 L
#96
0G
#97
b00000000000000000000000010111000 "
b00000000000000000000000010111000 9
b00000000000000000000000010111100 ;
b0000000000000000000000000000000000000000000000000000001011100000 C
1G
b00000000000000000000000010111100 I
b00000000000000000000000010111100 L
#98
0G
#99
b00000000000000000000000010111100 "
b00000000000000000000000010111100 9
b00000000000000000000000011000000 ;
b0000000000000000000000000000000000000000000000000000001011110000 C
1G
b00000000000000000000000011000000 I
b00000000000000000000000011000000 L
#100
0G
#101
b00000000000000000000000011000000 "
b00000000000000000000000011000000 9
b00000000000000000000000011000100 ;
b0000000000000000000000000000000000000000000000000000001100000000 C
1G
b00000000000000000000000011000100 I
b00000000000000000000000011000100 L
#102
0G
#103
b00000000000000000000000011000100 "
b00000000000000000000000011000100 9
b00000000000000000000000011001000 ;
b0000000000000000000000000000000000000000000000000000001100010000 C
1G
b00000000000000000000000011001000 I
b00000000000000000000000011001000 L
#104
0G
#105
b00000000000000000000000011001000 "
b00000000000000000000000011001000 9
b00000000000000000000000011001100 ;
b0000000000000000000000000000000000000000000000000000001100100000 C
1G
b00000000000000000000000011001100 I
b00000000000000000000000011001100 L
#106
0G
#107
b00000000000000000000000011001100 "
b00000000000000000000000011001100 9
b00000000000000000000000011010000 ;
b0000000000000000000000000000000000000000000000000000001100110000 C
1G
b00000000000000000000000011010000 I
b00000000000000000000000011010000 L
#108
0G
#109
b00000000000000000000000011010000 "
b00000000000000000000000011010000 9
b00000000000000000000000011010100 ;
b0000000000000000000000000000000000000000000000000000001101000000 C
1G
b00000000000000000000000011010100 I
b00000000000000000000000011010100 L
#110
0G
#111
b00000000000000000000000011010100 "
b00000000000000000000000011010100 9
b00000000000000000000000011011000 ;
b0000000000000000000000000000000000000000000000000000001101010000 C
1G
b00000000000000000000000011011000 I
b00000000000000000000000011011000 L
#112
0G
#113
b00000000000000000000000011011000 "
b00000000000000000000000011011000 9
b00000000000000000000000011011100 ;
b0000000000000000000000000000000000000000000000000000001101100000 C
1G
b00000000000000000000000011011100 I
b00000000000000000000000011011100 L
#114
0G
#115
b00000000000000000000000011011100 "
b00000000000000000000000011011100 9
b00000000000000000000000011100000 ;
b0000000000000000000000000000000000000000000000000000001101110000 C
1G
b00000000000000000000000011100000 I
b00000000000000000000000011100000 L
#116
0G
#117
b00000000000000000000000011100000 "
b00000000000000000000000011100000 9
b00000000000000000000000011100100 ;
b0000000000000000000000000000000000000000000000000000001110000000 C
1G
b00000000000000000000000011100100 I
b00000000000000000000000011100100 L
#118
0G
#119
b00000000000000000000000011100100 "
b00000000000000000000000011100100 9
b00000000000000000000000011101000 ;
b0000000000000000000000000000000000000000000000000000001110010000 C
1G
b00000000000000000000000011101000 I
b00000000000000000000000011101000 L
#120
0G
#121
b00000000000000000000000011101000 "
b00000000000000000000000011101000 9
b00000000000000000000000011101100 ;
b0000000000000000000000000000000000000000000000000000001110100000 C
1G
b00000000000000000000000011101100 I
b00000000000000000000000011101100 L
#122
0G
#123
b00000000000000000000000011101100 "
b00000000000000000000000011101100 9
b00000000000000000000000011110000 ;
b0000000000000000000000000000000000000000000000000000001110110000 C
1G
b00000000000000000000000011110000 I
b00000000000000000000000011110000 L
#124
0G
#125
b00000000000000000000000011110000 "
b00000000000000000000000011110000 9
b00000000000000000000000011110100 ;
b0000000000000000000000000000000000000000000000000000001111000000 C
1G
b00000000000000000000000011110100 I
b00000000000000000000000011110100 L
#126
0G
#127
b00000000000000000000000011110100 "
b00000000000000000000000011110100 9
b00000000000000000000000011111000 ;
b0000000000000000000000000000000000000000000000000000001111010000 C
1G
b00000000000000000000000011111000 I
b00000000000000000000000011111000 L
#128
0G
#129
b00000000000000000000000011111000 "
b00000000000000000000000011111000 9
b00000000000000000000000011111100 ;
b0000000000000000000000000000000000000000000000000000001111100000 C
1G
b00000000000000000000000011111100 I
b00000000000000000000000011111100 L
#130
0G
#131
b00000000000000000000000011111100 "
b00000000000000000000000011111100 9
b00000000000000000000000100000000 ;
b0000000000000000000000000000000000000000000000000000001111110000 C
1G
b00000000000000000000000100000000 I
b00000000000000000000000100000000 L
#132
0G
#133
b00000000000000000000000100000000 "
b00000000000000000000000100000000 9
b00000000000000000000000100000100 ;
b0000000000000000000000000000000000000000000000000000010000000000 C
1G
b00000000000000000000000100000100 I
b00000000000000000000000100000100 L
#134
0G
#135
b00000000000000000000000100000100 "
b00000000000000000000000100000100 9
b00000000000000000000000100001000 ;
b0000000000000000000000000000000000000000000000000000010000010000 C
1G
b00000000000000000000000100001000 I
b00000000000000000000000100001000 L
#136
0G
#137
b00000000000000000000000100001000 "
b00000000000000000000000100001000 9
b00000000000000000000000100001100 ;
b0000000000000000000000000000000000000000000000000000010000100000 C
1G
b00000000000000000000000100001100 I
b00000000000000000000000100001100 L
#138
0G
#139
b00000000000000000000000100001100 "
b00000000000000000000000100001100 9
b00000000000000000000000100010000 ;
b0000000000000000000000000000000000000000000000000000010000110000 C
1G
b00000000000000000000000100010000 I
b00000000000000000000000100010000 L
#140
0G
#141
b00000000000000000000000100010000 "
b00000000000000000000000100010000 9
b00000000000000000000000100010100 ;
b0000000000000000000000000000000000000000000000000000010001000000 C
1G
b00000000000000000000000100010100 I
b00000000000000000000000100010100 L
#142
0G
#143
b00000000000000000000000100010100 "
b00000000000000000000000100010100 9
b00000000000000000000000100011000 ;
b0000000000000000000000000000000000000000000000000000010001010000 C
1G
b00000000000000000000000100011000 I
b00000000000000000000000100011000 L
#144
0G
#145
b00000000000000000000000100011000 "
b00000000000000000000000100011000 9
b00000000000000000000000100011100 ;
b0000000000000000000000000000000000000000000000000000010001100000 C
1G
b00000000000000000000000100011100 I
b00000000000000000000000100011100 L
#146
0G
#147
b00000000000000000000000100011100 "
b00000000000000000000000100011100 9
b00000000000000000000000100100000 ;
b0000000000000000000000000000000000000000000000000000010001110000 C
1G
b00000000000000000000000100100000 I
b00000000000000000000000100100000 L
#148
0G
#149
b00000000000000000000000100100000 "
b00000000000000000000000100100000 9
b00000000000000000000000100100100 ;
b0000000000000000000000000000000000000000000000000000010010000000 C
1G
b00000000000000000000000100100100 I
b00000000000000000000000100100100 L
#150
0G
#151
b00000000000000000000000100100100 "
b00000000000000000000000100100100 9
b00000000000000000000000100101000 ;
b0000000000000000000000000000000000000000000000000000010010010000 C
1G
b00000000000000000000000100101000 I
b00000000000000000000000100101000 L
#152
0G
#153
b00000000000000000000000100101000 "
b00000000000000000000000100101000 9
b00000000000000000000000100101100 ;
b0000000000000000000000000000000000000000000000000000010010100000 C
1G
b00000000000000000000000100101100 I
b00000000000000000000000100101100 L
#154
0G
#155
b00000000000000000000000100101100 "
b00000000000000000000000100101100 9
b00000000000000000000000100110000 ;
b0000000000000000000000000000000000000000000000000000010010110000 C
1G
b00000000000000000000000100110000 I
b00000000000000000000000100110000 L
#156
0G
#157
b00000000000000000000000100110000 "
b00000000000000000000000100110000 9
b00000000000000000000000100110100 ;
b0000000000000000000000000000000000000000000000000000010011000000 C
1G
b00000000000000000000000100110100 I
b00000000000000000000000100110100 L
#158
0G
#159
b00000000000000000000000100110100 "
b00000000000000000000000100110100 9
b00000000000000000000000100111000 ;
b0000000000000000000000000000000000000000000000000000010011010000 C
1G
b00000000000000000000000100111000 I
b00000000000000000000000100111000 L
#160
0G
#161
b00000000000000000000000100111000 "
b00000000000000000000000100111000 9
b00000000000000000000000100111100 ;
b0000000000000000000000000000000000000000000000000000010011100000 C
1G
b00000000000000000000000100111100 I
b00000000000000000000000100111100 L
#162
0G
#163
b00000000000000000000000100111100 "
b00000000000000000000000100111100 9
b00000000000000000000000101000000 ;
b0000000000000000000000000000000000000000000000000000010011110000 C
1G
b00000000000000000000000101000000 I
b00000000000000000000000101000000 L
#164
0G
#165
b00000000000000000000000101000000 "
b00000000000000000000000101000000 9
b00000000000000000000000101000100 ;
b0000000000000000000000000000000000000000000000000000010100000000 C
1G
b00000000000000000000000101000100 I
b00000000000000000000000101000100 L
#166
0G
#167
b00000000000000000000000101000100 "
b00000000000000000000000101000100 9
b00000000000000000000000101001000 ;
b0000000000000000000000000000000000000000000000000000010100010000 C
1G
b00000000000000000000000101001000 I
b00000000000000000000000101001000 L
#168
0G
#169
b00000000000000000000000101001000 "
b00000000000000000000000101001000 9
b00000000000000000000000101001100 ;
b0000000000000000000000000000000000000000000000000000010100100000 C
1G
b00000000000000000000000101001100 I
b00000000000000000000000101001100 L
#170
0G
#171
b00000000000000000000000101001100 "
b00000000000000000000000101001100 9
b00000000000000000000000101010000 ;
b0000000000000000000000000000000000000000000000000000010100110000 C
1G
b00000000000000000000000101010000 I
b00000000000000000000000101010000 L
#172
0G
#173
b00000000000000000000000101010000 "
b00000000000000000000000101010000 9
b00000000000000000000000101010100 ;
b0000000000000000000000000000000000000000000000000000010101000000 C
1G
b00000000000000000000000101010100 I
b00000000000000000000000101010100 L
#174
0G
#175
b00000000000000000000000101010100 "
b00000000000000000000000101010100 9
b00000000000000000000000101011000 ;
b0000000000000000000000000000000000000000000000000000010101010000 C
1G
b00000000000000000000000101011000 I
b00000000000000000000000101011000 L
#176
0G
#177
b00000000000000000000000101011000 "
b00000000000000000000000101011000 9
b00000000000000000000000101011100 ;
b0000000000000000000000000000000000000000000000000000010101100000 C
1G
b00000000000000000000000101011100 I
b00000000000000000000000101011100 L
#178
0G
#179
b00000000000000000000000101011100 "
b00000000000000000000000101011100 9
b00000000000000000000000101100000 ;
b0000000000000000000000000000000000000000000000000000010101110000 C
1G
b00000000000000000000000101100000 I
b00000000000000000000000101100000 L
#180
0G
#181
b00000000000000000000000101100000 "
b00000000000000000000000101100000 9
b00000000000000000000000101100100 ;
b0000000000000000000000000000000000000000000000000000010110000000 C
1G
b00000000000000000000000101100100 I
b00000000000000000000000101100100 L
#182
0G
#183
b00000000000000000000000101100100 "
b00000000000000000000000101100100 9
b00000000000000000000000101101000 ;
b0000000000000000000000000000000000000000000000000000010110010000 C
1G
b00000000000000000000000101101000 I
b00000000000000000000000101101000 L
#184
0G
#185
b00000000000000000000000101101000 "
b00000000000000000000000101101000 9
b00000000000000000000000101101100 ;
b0000000000000000000000000000000000000000000000000000010110100000 C
1G
b00000000000000000000000101101100 I
b00000000000000000000000101101100 L
#186
0G
#187
b00000000000000000000000101101100 "
b00000000000000000000000101101100 9
b00000000000000000000000101110000 ;
b0000000000000000000000000000000000000000000000000000010110110000 C
1G
b00000000000000000000000101110000 I
b00000000000000000000000101110000 L
#188
0G
#189
b00000000000000000000000101110000 "
b00000000000000000000000101110000 9
b00000000000000000000000101110100 ;
b0000000000000000000000000000000000000000000000000000010111000000 C
1G
b00000000000000000000000101110100 I
b00000000000000000000000101110100 L
#190
0G
#191
b00000000000000000000000101110100 "
b00000000000000000000000101110100 9
b00000000000000000000000101111000 ;
b0000000000000000000000000000000000000000000000000000010111010000 C
1G
b00000000000000000000000101111000 I
b00000000000000000000000101111000 L
#192
0G
#193
b00000000000000000000000101111000 "
b00000000000000000000000101111000 9
b00000000000000000000000101111100 ;
b0000000000000000000000000000000000000000000000000000010111100000 C
1G
b00000000000000000000000101111100 I
b00000000000000000000000101111100 L
#194
0G
#195
b00000000000000000000000101111100 "
b00000000000000000000000101111100 9
b00000000000000000000000110000000 ;
b0000000000000000000000000000000000000000000000000000010111110000 C
1G
b00000000000000000000000110000000 I
b00000000000000000000000110000000 L
#196
0G
#197
b00000000000000000000000110000000 "
b00000000000000000000000110000000 9
b00000000000000000000000110000100 ;
b0000000000000000000000000000000000000000000000000000011000000000 C
1G
b00000000000000000000000110000100 I
b00000000000000000000000110000100 L
#198
0G
#199
b00000000000000000000000110000100 "
b00000000000000000000000110000100 9
b00000000000000000000000110001000 ;
b0000000000000000000000000000000000000000000000000000011000010000 C
1G
b00000000000000000000000110001000 I
b00000000000000000000000110001000 L
#200
0G
#201
b00000000000000000000000110001000 "
b00000000000000000000000110001000 9
b00000000000000000000000110001100 ;
b0000000000000000000000000000000000000000000000000000011000100000 C
1G
b00000000000000000000000110001100 I
b00000000000000000000000110001100 L
#202
0G
#203
b00000000000000000000000110001100 "
b00000000000000000000000110001100 9
b00000000000000000000000110010000 ;
b0000000000000000000000000000000000000000000000000000011000110000 C
1G
b00000000000000000000000110010000 I
b00000000000000000000000110010000 L
#204
0G
