Eclipse-100000/waveform.vcd
$version Generated by VerilatedVcd $end
$timescale 1s $end
 $scope module TOP $end
  $var wire 1 G clk $end
  $var wire 1 H reset $end
  $scope module CORE $end
   $var wire 1 G clk $end
   $var wire 1 H reset $end
   $var wire 32 " PC [31:0] $end
   $var wire 32 # IR [31:0] $end
   $var wire 32 $ EA [31:0] $end
   $var wire 32 % RegX [31:0] $end
   $var wire 32 & RegY [31:0] $end
   $var wire 32 I PCNext [31:0] $end
   $var wire 6 ' opcode [5:0] $end
   $var wire 5 ( rx0 [4:0] $end
   $var wire 5 ) rx1 [4:0] $end
   $var wire 16 * immediate [15:0] $end
   $var wire 1 + XWrite $end
   $var wire 1 , YWrite $end
   $var wire 1 - IRWrite $end
   $var wire 1 8 PCWrite $end
   $var wire 1 . GPRsWrite $end
   $var wire 1 / EAWrite $end
   $var wire 1 0 memRead $end
   $var wire 1 1 memWrite $end
   $var wire 1 2 aluSrcX $end
   $var wire 2 3 aluSrcY [1:0] $end
   $var wire 1 4 PCSrc $end
   $var wire 2 5 GPRsSrc [1:0] $end
   $var wire 32 J GPRs_data_out0 [31:0] $end
   $var wire 32 K GPRs_data_out1 [31:0] $end
   $var wire 32 L GPRs_data_in [31:0] $end
   $var wire 32 9 AluMuxX [31:0] $end
   $var wire 32 : AluMuxY [31:0] $end
   $var wire 32 ; AluResult [31:0] $end
   $var wire 2 6 aluOpSel [1:0] $end
   $var wire 6 < AluOpcode [5:0] $end
   $var wire 1 = OverflowFlag $end
   $var wire 1 > NegativeFlag $end
   $var wire 1 ? ZeroFlag $end
   $var wire 3 @ CompactedFlags [2:0] $end
   $var wire 32 A ram_data_out [31:0] $end
   $scope module all_gprs $end
    $var wire 1 G clk $end
    $var wire 1 . reg_write $end
    $var wire 5 ( rr0 [4:0] $end
    $var wire 5 ) rr1 [4:0] $end
    $var wire 5 ( rw0 [4:0] $end
    $var wire 32 L data_in [31:0] $end
    $var wire 32 J data_out0 [31:0] $end
    $var wire 32 K data_out1 [31:0] $end
    $var wire 32 M GPRs[31] [31:0] $end
    $var wire 32 N GPRs[30] [31:0] $end
    $var wire 32 O GPRs[29] [31:0] $end
    $var wire 32 P GPRs[28] [31:0] $end
    $var wire 32 Q GPRs[27] [31:0] $end
    $var wire 32 R GPRs[26] [31:0] $end
    $var wire 32 S GPRs[25] [31:0] $end
    $var wire 32 T GPRs[24] [31:0] $end
    $var wire 32 U GPRs[23] [31:0] $end
    $var wire 32 V GPRs[22] [31:0] $end
    $var wire 32 W GPRs[21] [31:0] $end
    $var wire 32 X GPRs[20] [31:0] $end
    $var wire 32 Y GPRs[19] [31:0] $end
    $var wire 32 Z GPRs[18] [31:0] $end
    $var wire 32 [ GPRs[17] [31:0] $end
    $var wire 32 \ GPRs[16] [31:0] $end
    $var wire 32 ] GPRs[15] [31:0] $end
    $var wire 32 ^ GPRs[14] [31:0] $end
    $var wire 32 _ GPRs[13] [31:0] $end
    $var wire 32 ` GPRs[12] [31:0] $end
    $var wire 32 a GPRs[11] [31:0] $end
    $var wire 32 b GPRs[10] [31:0] $end
    $var wire 32 c GPRs[9] [31:0] $end
    $var wire 32 d GPRs[8] [31:0] $end
    $var wire 32 e GPRs[7] [31:0] $end
    $var wire 32 f GPRs[6] [31:0] $end
    $var wire 32 g GPRs[5] [31:0] $end
    $var wire 32 h GPRs[4] [31:0] $end
    $var wire 32 i GPRs[3] [31:0] $end
    $var wire 32 j GPRs[2] [31:0] $end
    $var wire 32 k GPRs[1] [31:0] $end
    $var wire 32 l GPRs[0] [31:0] $end
   $upscope $end
   $scope module control_unit $end
    $var wire 1 G clk $end
    $var wire 1 H reset $end
    $var wire 6 ' opcode [5:0] $end
    $var wire 3 @ flags [2:0] $end
    $var wire 1 + XWrite $end
    $var wire 1 , YWrite $end
    $var wire 1 - IRWrite $end
    $var wire 1 8 PCWrite $end
    $var wire 1 . GPRsWrite $end
    $var wire 1 / EAWrite $end
    $var wire 1 0 memRead $end
    $var wire 1 1 memWrite $end
    $var wire 1 2 aluSrcX $end
    $var wire 2 3 aluSrcY [1:0] $end
    $var wire 1 4 PCSrc $end
    $var wire 2 5 GPRsSrc [1:0] $end
    $var wire 2 6 aluOpSel [1:0] $end
    $var wire 4 7 current_state [3:0] $end
    $var wire 4 B next_state [3:0] $end
   $upscope $end
   $scope module cpu_alu $end
    $var wire 32 9 x [31:0] $end
    $var wire 32 : y [31:0] $end
    $var wire 6 < opcode [5:0] $end
    $var wire 32 ; result [31:0] $end
    $var wire 1 = OverflowFlag $end
    $var wire 1 > NegativeFlag $end
    $var wire 1 ? ZeroFlag $end
    $var wire 64 C mul_product [63:0] $end
   $upscope $end
   $scope module system_ram $end
    $var wire 1 G clk $end
    $var wire 32 E address [31:0] $end
    $var wire 32 % data_in [31:0] $end
    $var wire 1 1 mem_write $end
    $var wire 1 0 mem_read $end
    $var wire 32 A data_out [31:0] $end
    $var wire 20 F unused_bits [19:0] $end
   $upscope $end
  $upscope $end
 $upscope $end
$enddefinitions $end


#0
b00000000000000000000000000000000 "
b00000000000000000000000000000000 #
b00000000000000000000000000000000 $
b00000000000000000000000000000000 %
b00000000000000000000000000000000 &
b000000 '
b00000 (
b00000 )
b0000000000000000 *
0+
0,
1-
0.
0/
10
01
12
b00 3
14
b00 5
b00 6
b0000 7
18
b00000000000000000000000000000000 9
b00000000000000000000000000000100 :
b00000000000000000000000000000100 ;
b000001 <
0=
0>
0?
b000 @
b01000101100000000000000000000000 A
b0001 B
b0000000000000000000000000000000000000000000000000000000000000000 C
b00000000000000000000000000000000 E
b00000000000000000000 F
0G
1H
b00000000000000000000000000000100 I
b00000000000000000000000000000000 J
b00000000000000000000000000000000 K
b00000000000000000000000000000100 L
b00000000000000000000000000000000 M
b00000000000000000000000000000000 N
b00000000000000000000000000000000 O
b00000000000000000000000000000000 P
b00000000000000000000000000000000 Q
b00000000000000000000000000000000 R
b00000000000000000000000000000000 S
b00000000000000000000000000000000 T
b00000000000000000000000000000000 U
b00000000000000000000000000000000 V
b00000000000000000000000000000000 W
b00000000000000000000000000000000 X
b00000000000000000000000000000000 Y
b00000000000000000000000000000000 Z
b00000000000000000000000000000000 [
b00000000000000000000000000000000 \
b00000000000000000000000000000000 ]
b00000000000000000000000000000000 ^
b00000000000000000000000000000000 _
b00000000000000000000000000000000 `
b00000000000000000000000000000000 a
b00000000000000000000000000000000 b
b00000000000000000000000000000000 c
b00000000000000000000000000000000 d
b00000000000000000000000000000000 e
b00000000000000000000000000000000 f
b00000000000000000000000000000000 g
b00000000000000000000000000000000 h
b00000000000000000000000000000000 i
b00000000000000000000000000000000 j
b00000000000000000000000000000000 k
b00000000000000000000000000000000 l
#1
1G
#2
0G
#3
1G
#4
0G
#5
b00000000000000000000000000000100 "
b01000101100000000000000000000000 #
b010001 '
b01100 (
1+
1,
0-
1/
00
b11 3
04
b0001 7
08
b00000000000000000000000000000100 9
b00000000000000000000000000000000 :
b00000000000000000000000000000000 A
b0100 B
1G
0H
b00000000000000000000000000000000 I
#6
0G
#7
b00000000000000000000000000000100 $
0+
0,
1.
0/
02
b00 3
b11 5
b0100 7
b00000000000000000000000000000000 9
b00000000000000000000000000000100 :
b0000 B
1G
b00000000000000000000000000000100 I
b00000000000000000000000000000000 L
#8
0G
#9
1-
0.
10
12
14
b00 5
b0000 7
18
b00000000000000000000000000000100 9
b00000000000000000000000000001000 ;
b01000100001000000000000000000001 A
b0001 B
b0000000000000000000000000000000000000000000000000000000000010000 C
b00000000000000000000000000000100 E
1G
b00000000000000000000000000001000 I
b00000000000000000000000000001000 L
#10
0G
#11
b00000000000000000000000000001000 "
b01000100001000000000000000000001 #
b00001 (
b0000000000000001 *
1+
1,
0-
1/
00
b11 3
04
b0001 7
08
b00000000000000000000000000001000 9
b00000000000000000000000000000001 :
b00000000000000000000000000001001 ;
b00000000000000000000000000000000 A
b0100 B
b0000000000000000000000000000000000000000000000000000000000001000 C
b00000000000000000000000000000000 E
1G
b00000000000000000000000000000100 I
b00000000000000000000000000001001 L
#12
0G
#13
b00000000000000000000000000001001 $
0+
0,
1.
0/
02
b00 3
b11 5
b0100 7
b00000000000000000000000000000000 9
b00000000000000000000000000000100 :
b00000000000000000000000000000100 ;
b0000 B
b0000000000000000000000000000000000000000000000000000000000000000 C
1G
b00000000000000000000000000001001 I
b00000000000000000000000000000001 L
#14
0G
#15
1-
0.
10
12
14
b00 5
b0000 7
18
b00000000000000000000000000001000 9
b00000000000000000000000000001100 ;
b01000100011000000000001111101000 A
b0001 B
b0000000000000000000000000000000000000000000000000000000000100000 C
b00000000000000000000000000001000 E
1G
b00000000000000000000000000001100 I
b00000000000000000000000000000001 J
b00000000000000000000000000001100 L
b00000000000000000000000000000001 k
#16
0G
#17
b00000000000000000000000000001100 "
b01000100011000000000001111101000 #
b00011 (
b0000001111101000 *
1+
1,
0-
1/
00
b11 3
04
b0001 7
08
b00000000000000000000000000001100 9
b00000000000000000000001111101000 :
b00000000000000000000001111110100 ;
b00000000000000000000000000000000 A
b0100 B
b0000000000000000000000000000000000000000000000000010111011100000 C
b00000000000000000000000000000000 E
1G
b00000000000000000000000000001001 I
b00000000000000000000000000000000 J
b00000000000000000000001111110100 L
#18
0G
#19
b00000000000000000000001111110100 $
0+
0,
1.
0/
02
b00 3
b11 5
b0100 7
b00000000000000000000000000000000 9
b00000000000000000000000000000100 :
b00000000000000000000000000000100 ;
b0000 B
b0000000000000000000000000000000000000000000000000000000000000000 C
1G
b00000000000000000000001111110100 I
b00000000000000000000001111101000 L
#20
0G
#21
1-
0.
10
12
14
b00 5
b0000 7
18
b00000000000000000000000000001100 9
b00000000000000000000000000010000 ;
b01000100100000000000001111101000 A
b0001 B
b0000000000000000000000000000000000000000000000000000000000110000 C
b00000000000000000000000000001100 E
1G
b00000000000000000000000000010000 I
b00000000000000000000001111101000 J
b00000000000000000000000000010000 L
b00000000000000000000001111101000 i
#22
0G
#23
b00000000000000000000000000010000 "
b01000100100000000000001111101000 #
b00100 (
1+
1,
0-
1/
00
b11 3
04
b0001 7
08
b00000000000000000000000000010000 9
b00000000000000000000001111101000 :
b00000000000000000000001111111000 ;
b00000000000000000000000000000000 A
b0100 B
b0000000000000000000000000000000000000000000000000011111010000000 C
b00000000000000000000000000000000 E
1G
b00000000000000000000001111110100 I
b00000000000000000000000000000000 J
b00000000000000000000001111111000 L
#24
0G
#25
b00000000000000000000001111111000 $
0+
0,
1.
0/
02
b00 3
b11 5
b0100 7
b00000000000000000000000000000000 9
b00000000000000000000000000000100 :
b00000000000000000000000000000100 ;
b0000 B
b0000000000000000000000000000000000000000000000000000000000000000 C
1G
b00000000000000000000001111111000 I
b00000000000000000000001111101000 L
#26
0G
#27
1-
0.
10
12
14
b00 5
b0000 7
18
b00000000000000000000000000010000 9
b00000000000000000000000000010100 ;
b00011100011001000000000000000000 A
b0001 B
b0000000000000000000000000000000000000000000000000000000001000000 C
b00000000000000000000000000010000 E
1G
b00000000000000000000000000010100 I
b00000000000000000000001111101000 J
b00000000000000000000000000010100 L
b00000000000000000000001111101000 h
#28
0G
#29
b00000000000000000000000000010100 "
b00011100011001000000000000000000 #
b000111 '
b00011 (
b00100 )
b0000000000000000 *
1+
1,
0-
1/
00
b11 3
04
b0001 7
08
b00000000000000000000000000010100 9
b00000000000000000000000000000000 :
b00000000000000000000000000000000 A
b0010 B
b0000000000000000000000000000000000000000000000000000000000000000 C
b00000000000000000000000000000000 E
1G
b00000000000000000000001111111000 I
b00000000000000000000001111101000 K
#30
0G
#31
b00000000000000000000000000010100 $
b00000000000000000000001111101000 %
b00000000000000000000001111101000 &
0+
0,
1.
0/
02
b01 3
b10 6
b0010 7
b00000000000000000000001111101000 9
b00000000000000000000001111101000 :
b00000000000011110100001001000000 ;
b000111 <
b0000 B
b0000000000000000000000000000000000000000000011110100001001000000 C
b00000000000000000000001111101000 E
1G
b00000000000000000000000000010100 I
b00000000000011110100001001000000 L
#32
0G
#33
1-
0.
10
12
b00 3
14
b00 6
b0000 7
18
b00000000000000000000000000010100 9
b00000000000000000000000000000100 :
b00000000000000000000000000011000 ;
b000001 <
b01000100101000000000111111111100 A
b0001 B
b0000000000000000000000000000000000000000000000000000000001010000 C
b00000000000000000000000000010100 E
1G
b00000000000000000000000000011000 I
b00000000000011110100001001000000 J
b00000000000000000000000000011000 L
b00000000000011110100001001000000 i
#34
0G
#35
b00000000000000000000000000011000 "
b01000100101000000000111111111100 #
b010001 '
b00101 (
b00000 )
b0000111111111100 *
1+
1,
0-
1/
00
b11 3
04
b0001 7
08
b00000000000000000000000000011000 9
b00000000000000000000111111111100 :
b00000000000000000001000000010100 ;
b00000000000000000000000000000000 A
b0100 B
b0000000000000000000000000000000000000000000000010111111110100000 C
b00000000000000000000001111101000 E
1G
b00000000000000000000000000010100 I
b00000000000000000000000000000000 J
b00000000000000000000000000000000 K
b00000000000000000001000000010100 L
#36
0G
#37
b00000000000000000001000000010100 $
b00000000000000000000000000000000 %
b00000000000000000000000000000000 &
0+
0,
1.
0/
02
b00 3
b11 5
b0100 7
b00000000000000000000000000000000 9
b00000000000000000000000000000100 :
b00000000000000000000000000000100 ;
b0000 B
b0000000000000000000000000000000000000000000000000000000000000000 C
b00000000000000000000000000000000 E
1G
b00000000000000000001000000010100 I
b00000000000000000000111111111100 L
#38
0G
#39
1-
0.
10
12
14
b00 5
b0000 7
18
b00000000000000000000000000011000 9
b00000000000000000000000000011100 ;
b01000100110000000000000000000100 A
b0001 B
b0000000000000000000000000000000000000000000000000000000001100000 C
b00000000000000000000000000011000 E
1G
b00000000000000000000000000011100 I
b00000000000000000000111111111100 J
b00000000000000000000000000011100 L
b00000000000000000000111111111100 g
#40
0G
#41
b00000000000000000000000000011100 "
b01000100110000000000000000000100 #
b00110 (
b0000000000000100 *
1+
1,
0-
1/
00
b11 3
04
b0001 7
08
b00000000000000000000000000011100 9
b00000000000000000000000000100000 ;
b00000000000000000000000000000000 A
b0100 B
b0000000000000000000000000000000000000000000000000000000001110000 C
b00000000000000000000000000000000 E
1G
b00000000000000000001000000010100 I
b00000000000000000000000000000000 J
b00000000000000000000000000100000 L
#42
0G
#43
b00000000000000000000000000100000 $
0+
0,
1.
0/
02
b00 3
b11 5
b0100 7
b00000000000000000000000000000000 9
b00000000000000000000000000000100 ;
b0000 B
b0000000000000000000000000000000000000000000000000000000000000000 C
1G
b00000000000000000000000000100000 I
b00000000000000000000000000000100 L
#44
0G
#45
1-
0.
10
12
14
b00 5
b0000 7
18
b00000000000000000000000000011100 9
b00000000000000000000000000100000 ;
b01000100010000000000000000000000 A
b0001 B
b0000000000000000000000000000000000000000000000000000000001110000 C
b00000000000000000000000000011100 E
1G
b00000000000000000000000000000100 J
b00000000000000000000000000100000 L
b00000000000000000000000000000100 f
#46
0G
#47
b00000000000000000000000000100000 "
b01000100010000000000000000000000 #
b00010 (
b0000000000000000 *
1+
1,
0-
1/
00
b11 3
04
b0001 7
08
b00000000000000000000000000100000 9
b00000000000000000000000000000000 :
b00000000000000000000000000000000 A
b0100 B
b0000000000000000000000000000000000000000000000000000000000000000 C
b00000000000000000000000000000000 E
1G
b00000000000000000000000000000000 J
#48
0G
#49
0+
0,
1.
0/
02
b00 3
b11 5
b0100 7
b00000000000000000000000000000000 9
b00000000000000000000000000000100 :
b00000000000000000000000000000100 ;
b0000 B
1G
b00000000000000000000000000000000 L
#50
0G
#51
1-
0.
10
12
14
b00 5
b0000 7
18
b00000000000000000000000000100000 9
b00000000000000000000000000100100 ;
b10011101100001010000000000000000 A
b0001 B
b0000000000000000000000000000000000000000000000000000000010000000 C
b00000000000000000000000000100000 E
1G
b00000000000000000000000000100100 I
b00000000000000000000000000100100 L
#52
0G
#53
b00000000000000000000000000100100 "
b10011101100001010000000000000000 #
b100111 '
b01100 (
b00101 )
1+
1,
0-
1/
00
b11 3
04
b0001 7
08
b00000000000000000000000000100100 9
b00000000000000000000000000000000 :
b00000000000000000000000000000000 A
b0110 B
b0000000000000000000000000000000000000000000000000000000000000000 C
b00000000000000000000000000000000 E
1G
b00000000000000000000000000100000 I
b00000000000000000000111111111100 K
#54
0G
#55
b00000000000000000000000000100100 $
b00000000000000000000111111111100 &
0+
0,
0/
11
02
b00 3
b0110 7
b00000000000000000000000000000000 9
b00000000000000000000000000000100 :
b00000000000000000000000000000100 ;
b0000 B
b00000000000000000000111111111100 E
1G
b00000000000000000000000000100100 I
b00000000000000000000000000000100 L
#56
0G
#57
1-
10
01
12
14
b0000 7
18
b00000000000000000000000000100100 9
b00000000000000000000000000101000 ;
b00001100101001100000000000000000 A
b0001 B
b0000000000000000000000000000000000000000000000000000000010010000 C
b00000000000000000000000000100100 E
1G
b00000000000000000000000000101000 I
b00000000000000000000000000101000 L
#58
0G
#59
b00000000000000000000000000101000 "
b00001100101001100000000000000000 #
b000011 '
b00101 (
b00110 )
1+
1,
0-
1/
00
b11 3
04
b0001 7
08
b00000000000000000000000000101000 9
b00000000000000000000000000000000 :
b00000000000000000000000000000000 A
b0010 B
b0000000000000000000000000000000000000000000000000000000000000000 C
b00000000000000000000111111111100 E
1G
b00000000000000000000000000100100 I
b00000000000000000000111111111100 J
b00000000000000000000000000000100 K
#60
0G
#61
b00000000000000000000000000101000 $
b00000000000000000000111111111100 %
b00000000000000000000000000000100 &
0+
0,
1.
0/
02
b01 3
b10 6
b0010 7
b00000000000000000000111111111100 9
b00000000000000000000000000000100 :
b00000000000000000000111111111000 ;
b000011 <
b0000 B
b0000000000000000000000000000000000000000000000000011111111110000 C
b00000000000000000000000000000100 E
1G
b00000000000000000000000000101000 I
b00000000000000000000111111111000 L
#62
0G
#63
1-
0.
10
12
b00 3
14
b00 6
b0000 7
18
b00000000000000000000000000101000 9
b00000000000000000000000000101100 ;
b000001 <
b00000100010011000000000000000000 A
b0001 B
b0000000000000000000000000000000000000000000000000000000010100000 C
b00000000000000000000000000101000 E
1G
b00000000000000000000000000101100 I
b00000000000000000000111111111000 J
b00000000000000000000000000101100 L
b00000000000000000000111111111000 g
#64
0G
#65
b00000000000000000000000000101100 "
b00000100010011000000000000000000 #
b000001 '
b00010 (
b01100 )
1+
1,
0-
1/
00
b11 3
04
b0001 7
08
b00000000000000000000000000101100 9
b00000000000000000000000000000000 :
b00000000000000000000000000000000 A
b0010 B
b0000000000000000000000000000000000000000000000000000000000000000 C
b00000000000000000000000000000100 E
1G
b00000000000000000000000000101000 I
b00000000000000000000000000000000 J
b00000000000000000000000000000000 K
#66
0G
#67
b00000000000000000000000000101100 $
b00000000000000000000000000000000 %
b00000000000000000000000000000000 &
0+
0,
1.
0/
02
b01 3
b10 6
b0010 7
b00000000000000000000000000000000 9
b00000000000000000000000000000000 ;
1?
b001 @
b0000 B
b00000000000000000000000000000000 E
1G
b00000000000000000000000000101100 I
b00000000000000000000000000000000 L
#68
0G
#69
1-
0.
10
12
b00 3
14
b00 6
b0000 7
18
b00000000000000000000000000101100 9
b00000000000000000000000000000100 :
b00000000000000000000000000110000 ;
0?
b000 @
b00000101100000010000000000000000 A
b0001 B
b0000000000000000000000000000000000000000000000000000000010110000 C
b00000000000000000000000000101100 E
1G
b00000000000000000000000000110000 I
b00000000000000000000000000110000 L
#70
0G
#71
b00000000000000000000000000110000 "
b00000101100000010000000000000000 #
b01100 (
b00001 )
1+
1,
0-
1/
00
b11 3
04
b0001 7
08
b00000000000000000000000000110000 9
b00000000000000000000000000000000 :
b00000000000000000000000000000000 A
b0010 B
b0000000000000000000000000000000000000000000000000000000000000000 C
b00000000000000000000000000000000 E
1G
b00000000000000000000000000101100 I
b00000000000000000000000000000001 K
#72
0G
#73
b00000000000000000000000000110000 $
b00000000000000000000000000000001 &
0+
0,
1.
0/
02
b01 3
b10 6
b0010 7
b00000000000000000000000000000000 9
b00000000000000000000000000000001 :
b00000000000000000000000000000001 ;
b0000 B
b00000000000000000000000000000001 E
b00000000000000000001 F
1G
b00000000000000000000000000110000 I
b00000000000000000000000000000001 L
#74
0G
#75
1-
0.
10
12
b00 3
14
b00 6
b0000 7
18
b00000000000000000000000000110000 9
b00000000000000000000000000000100 :
b00000000000000000000000000110100 ;
b00001000001000010000000000000000 A
b0001 B
b0000000000000000000000000000000000000000000000000000000011000000 C
b00000000000000000000000000110000 E
b00000000000000000000 F
1G
b00000000000000000000000000110100 I
b00000000000000000000000000000001 J
b00000000000000000000000000110100 L
b00000000000000000000000000000001 `
#76
0G
#77
b00000000000000000000000000110100 "
b00001000001000010000000000000000 #
b000010 '
b00001 (
1+
1,
0-
1/
00
b11 3
04
b0001 7
08
b00000000000000000000000000110100 9
b00000000000000000000000000000000 :
b00000000000000000000000000000000 A
b0010 B
b0000000000000000000000000000000000000000000000000000000000000000 C
b00000000000000000000000000000001 E
b00000000000000000001 F
1G
b00000000000000000000000000110000 I
#78
0G
#79
b00000000000000000000000000110100 $
b00000000000000000000000000000001 %
0+
0,
1.
0/
02
b01 3
b10 6
b0010 7
b00000000000000000000000000000001 9
b00000000000000000000000000000001 :
b00000000000000000000000000000000 ;
b000010 <
1?
b001 @
b0000 B
b0000000000000000000000000000000000000000000000000000000000000001 C
1G
b00000000000000000000000000110100 I
b00000000000000000000000000000000 L
#80
0G
#81
1-
0.
10
12
b00 3
14
b00 6
b0000 7
18
b00000000000000000000000000110100 9
b00000000000000000000000000000100 :
b00000000000000000000000000111000 ;
b000001 <
0?
b000 @
b00000100001000100000000000000000 A
b0001 B
b0000000000000000000000000000000000000000000000000000000011010000 C
b00000000000000000000000000110100 E
b00000000000000000000 F
1G
b00000000000000000000000000111000 I
b00000000000000000000000000000000 J
b00000000000000000000000000000000 K
b00000000000000000000000000111000 L
b00000000000000000000000000000000 k
#82
0G
#83
b00000000000000000000000000111000 "
b00000100001000100000000000000000 #
b000001 '
b00010 )
1+
1,
0-
1/
00
b11 3
04
b0001 7
08
b00000000000000000000000000111000 9
b00000000000000000000000000000000 :
b00000000000000000000000000000000 A
b0010 B
b0000000000000000000000000000000000000000000000000000000000000000 C
b00000000000000000000000000000001 E
b00000000000000000001 F
1G
b00000000000000000000000000110100 I
#84
0G
#85
b00000000000000000000000000111000 $
b00000000000000000000000000000000 %
b00000000000000000000000000000000 &
0+
0,
1.
0/
02
b01 3
b10 6
b0010 7
b00000000000000000000000000000000 9
b00000000000000000000000000000000 ;
1?
b001 @
b0000 B
b00000000000000000000000000000000 E
b00000000000000000000 F
1G
b00000000000000000000000000111000 I
b00000000000000000000000000000000 L
#86
0G
#87
1-
0.
10
12
b00 3
14
b00 6
b0000 7
18
b00000000000000000000000000111000 9
b00000000000000000000000000000100 :
b00000000000000000000000000111100 ;
0?
b000 @
b00001000010000100000000000000000 A
b0001 B
b0000000000000000000000000000000000000000000000000000000011100000 C
b00000000000000000000000000111000 E
1G
b00000000000000000000000000111100 I
b00000000000000000000000000111100 L
#88
0G
#89
b00000000000000000000000000111100 "
b00001000010000100000000000000000 #
b000010 '
b00010 (
1+
1,
0-
1/
00
b11 3
04
b0001 7
08
b00000000000000000000000000111100 9
b00000000000000000000000000000000 :
b00000000000000000000000000000000 A
b0010 B
b0000000000000000000000000000000000000000000000000000000000000000 C
b00000000000000000000000000000000 E
1G
b00000000000000000000000000111000 I
#90
0G
#91
b00000000000000000000000000111100 $
0+
0,
1.
0/
02
b01 3
b10 6
b0010 7
b00000000000000000000000000000000 9
b00000000000000000000000000000000 ;
b000010 <
1?
b001 @
b0000 B
1G
b00000000000000000000000000111100 I
b00000000000000000000000000000000 L
#92
0G
#93
1-
0.
10
12
b00 3
14
b00 6
b0000 7
18
b00000000000000000000000000111100 9
b00000000000000000000000000000100 :
b00000000000000000000000001000000 ;
b000001 <
0?
b000 @
b11001101100000111111111111100000 A
b0001 B
b0000000000000000000000000000000000000000000000000000000011110000 C
b00000000000000000000000000111100 E
1G
b00000000000000000000000001000000 I
b00000000000000000000000001000000 L
#94
0G
#95
b00000000000000000000000001000000 "
b11001101100000111111111111100000 #
b110011 '
b01100 (
b00011 )
b1111111111100000 *
1+
1,
0-
1/
00
b11 3
04
b0001 7
08
b00000000000000000000000001000000 9
b11111111111111111111111111100000 :
b00000000000000000000000000100000 ;
b00000000000000000000000000000000 A
b0011 B
b0000000000000000000000000011111111111111111111111111100000000000 C
b00000000000000000000000000000000 E
1G
b00000000000000000000000000111100 I
b00000000000000000000000000000001 J
b00000000000011110100001001000000 K
b00000000000000000000000000100000 L
#96
0G
#97
b00000000000000000000000000100000 $
b00000000000000000000000000000001 %
b00000000000011110100001001000000 &
0+
0,
0/
02
b01 3
b01 6
b0011 7
18
b00000000000000000000000000000001 9
b00000000000011110100001001000000 :
b11111111111100001011110111000001 ;
b000011 <
1>
b100 @
b0000 B
b0000000000000000000000000000000000000000000011110100001001000000 C
b00000000000011110100001001000000 E
b00000000000011110100 F
1G
b00000000000000000000000000100000 I
b11111111111100001011110111000001 L
#98
0G
#99
b00000000000000000000000000100000 "
1-
10
12
b00 3
14
b00 6
b0000 7
b00000000000000000000000000100000 9
b00000000000000000000000000000100 :
b00000000000000000000000000100100 ;
b000001 <
0>
b000 @
b10011101100001010000000000000000 A
b0001 B
b0000000000000000000000000000000000000000000000000000000010000000 C
b00000000000000000000000000100000 E
b00000000000000000000 F
1G
b00000000000000000000000000100100 I
b00000000000000000000000000100100 L
#100
0G
#101
b00000000000000000000000000100100 "
b10011101100001010000000000000000 #
b100111 '
b00101 )
b0000000000000000 *
1+
1,
0-
1/
00
b11 3
04
b0001 7
08
b00000000000000000000000000100100 9
b00000000000000000000000000000000 :
b00000000000000000000000000000000 A
b0110 B
b0000000000000000000000000000000000000000000000000000000000000000 C
b00000000000011110100001001000000 E
b00000000000011110100 F
1G
b00000000000000000000000000100000 I
b00000000000000000000111111111000 K
#102
0G
#103
b00000000000000000000000000100100 $
b00000000000000000000111111111000 &
0+
0,
0/
11
02
b00 3
b0110 7
b00000000000000000000000000000001 9
b00000000000000000000000000000100 :
b00000000000000000000000000000101 ;
b0000 B
b0000000000000000000000000000000000000000000000000000000000000100 C
b00000000000000000000111111111000 E
b00000000000000000000 F
1G
b00000000000000000000000000100100 I
b00000000000000000000000000000101 L
#104
0G
#105
1-
10
01
12
14
b0000 7
18
b00000000000000000000000000100100 9
b00000000000000000000000000101000 ;
b00001100101001100000000000000000 A
b0001 B
b0000000000000000000000000000000000000000000000000000000010010000 C
b00000000000000000000000000100100 E
1G
b00000000000000000000000000101000 I
b00000000000000000000000000101000 L
#106
0G
#107
b00000000000000000000000000101000 "
b00001100101001100000000000000000 #
b000011 '
b00101 (
b00110 )
1+
1,
0-
1/
00
b11 3
04
b0001 7
08
b00000000000000000000000000101000 9
b00000000000000000000000000000000 :
b00000000000000000000000000000000 A
b0010 B
b0000000000000000000000000000000000000000000000000000000000000000 C
b00000000000000000000111111111000 E
1G
b00000000000000000000000000100100 I
b00000000000000000000111111111000 J
b00000000000000000000000000000100 K
#108
0G
#109
b00000000000000000000000000101000 $
b00000000000000000000111111111000 %
b00000000000000000000000000000100 &
0+
0,
1.
0/
02
b01 3
b10 6
b0010 7
b00000000000000000000111111111000 9
b00000000000000000000000000000100 :
b00000000000000000000111111110100 ;
b000011 <
b0000 B
b0000000000000000000000000000000000000000000000000011111111100000 C
b00000000000000000000000000000100 E
1G
b00000000000000000000000000101000 I
b00000000000000000000111111110100 L
#110
0G
#111
1-
0.
10
12
b00 3
14
b00 6
b0000 7
18
b00000000000000000000000000101000 9
b00000000000000000000000000101100 ;
b000001 <
b00000100010011000000000000000000 A
b0001 B
b0000000000000000000000000000000000000000000000000000000010100000 C
b00000000000000000000000000101000 E
1G
b00000000000000000000000000101100 I
b00000000000000000000111111110100 J
b00000000000000000000000000101100 L
b00000000000000000000111111110100 g
#112
0G
#113
b00000000000000000000000000101100 "
b00000100010011000000000000000000 #
b000001 '
b00010 (
b01100 )
1+
1,
0-
1/
00
b11 3
04
b0001 7
08
b00000000000000000000000000101100 9
b00000000000000000000000000000000 :
b00000000000000000000000000000000 A
b0010 B
b0000000000000000000000000000000000000000000000000000000000000000 C
b00000000000000000000000000000100 E
1G
b00000000000000000000000000101000 I
b00000000000000000000000000000000 J
b00000000000000000000000000000001 K
#114
0G
#115
b00000000000000000000000000101100 $
b00000000000000000000000000000000 %
b00000000000000000000000000000001 &
0+
0,
1.
0/
02
b01 3
b10 6
b0010 7
b00000000000000000000000000000000 9
b00000000000000000000000000000001 :
b00000000000000000000000000000001 ;
b0000 B
b00000000000000000000000000000001 E
b00000000000000000001 F
1G
b00000000000000000000000000101100 I
b00000000000000000000000000000001 L
#116
0G
#117
1-
0.
10
12
b00 3
14
b00 6
b0000 7
18
b00000000000000000000000000101100 9
b00000000000000000000000000000100 :
b00000000000000000000000000110000 ;
b00000101100000010000000000000000 A
b0001 B
b0000000000000000000000000000000000000000000000000000000010110000 C
b00000000000000000000000000101100 E
b00000000000000000000 F
1G
b00000000000000000000000000110000 I
b00000000000000000000000000000001 J
b00000000000000000000000000110000 L
b00000000000000000000000000000001 j
#118
0G
#119
b00000000000000000000000000110000 "
b00000101100000010000000000000000 #
b01100 (
b00001 )
1+
1,
0-
1/
00
b11 3
04
b0001 7
08
b00000000000000000000000000110000 9
b00000000000000000000000000000000 :
b00000000000000000000000000000000 A
b0010 B
b0000000000000000000000000000000000000000000000000000000000000000 C
b00000000000000000000000000000001 E
b00000000000000000001 F
1G
b00000000000000000000000000101100 I
b00000000000000000000000000000000 K
#120
0G
